%TF.GenerationSoftware,KiCad,Pcbnew,(7.0.0)*%
%TF.CreationDate,2024-03-31T01:55:47+08:00*%
%TF.ProjectId,__,42182e6b-6963-4616-945f-706362585858,rev?*%
%TF.SameCoordinates,Original*%
%TF.FileFunction,Drillmap*%
%TF.FilePolarity,Positive*%
%FSLAX45Y45*%
G04 Gerber Fmt 4.5, Leading zero omitted, Abs format (unit mm)*
G04 Created by KiCad (PCBNEW (7.0.0)) date 2024-03-31 01:55:47*
%MOMM*%
%LPD*%
G01*
G04 APERTURE LIST*
%ADD10C,0.100000*%
%ADD11C,0.200000*%
%ADD12C,0.080000*%
%ADD13C,0.090000*%
G04 APERTURE END LIST*
D10*
X9931400Y-1447800D02*
G75*
G03*
X9931400Y-1447800I-100000J0D01*
G01*
X1776400Y-1447800D02*
G75*
G03*
X1776400Y-1447800I-100000J0D01*
G01*
X1507600Y-1270000D02*
X10007600Y-1270000D01*
X10007600Y-1270000D02*
X10007600Y-5477400D01*
X10007600Y-5477400D02*
X1507600Y-5477400D01*
X1507600Y-5477400D02*
X1507600Y-1270000D01*
D11*
D12*
X6437000Y-4151000D02*
X6517000Y-4231000D01*
X6517000Y-4151000D02*
X6437000Y-4231000D01*
X6437000Y-4862200D02*
X6517000Y-4942200D01*
X6517000Y-4862200D02*
X6437000Y-4942200D01*
X1894200Y-2209800D02*
G75*
G03*
X1894200Y-2209800I-40000J0D01*
G01*
X1894200Y-2463800D02*
G75*
G03*
X1894200Y-2463800I-40000J0D01*
G01*
X1894200Y-2717800D02*
G75*
G03*
X1894200Y-2717800I-40000J0D01*
G01*
X1894200Y-2971800D02*
G75*
G03*
X1894200Y-2971800I-40000J0D01*
G01*
X1894200Y-3225800D02*
G75*
G03*
X1894200Y-3225800I-40000J0D01*
G01*
X1894200Y-3479800D02*
G75*
G03*
X1894200Y-3479800I-40000J0D01*
G01*
X1894200Y-3733800D02*
G75*
G03*
X1894200Y-3733800I-40000J0D01*
G01*
X1894200Y-3987800D02*
G75*
G03*
X1894200Y-3987800I-40000J0D01*
G01*
X2249800Y-2209800D02*
G75*
G03*
X2249800Y-2209800I-40000J0D01*
G01*
X2249800Y-2463800D02*
G75*
G03*
X2249800Y-2463800I-40000J0D01*
G01*
X2249800Y-2717800D02*
G75*
G03*
X2249800Y-2717800I-40000J0D01*
G01*
X2249800Y-2971800D02*
G75*
G03*
X2249800Y-2971800I-40000J0D01*
G01*
X2249800Y-3225800D02*
G75*
G03*
X2249800Y-3225800I-40000J0D01*
G01*
X2249800Y-3479800D02*
G75*
G03*
X2249800Y-3479800I-40000J0D01*
G01*
X2249800Y-3733800D02*
G75*
G03*
X2249800Y-3733800I-40000J0D01*
G01*
X2249800Y-3987800D02*
G75*
G03*
X2249800Y-3987800I-40000J0D01*
G01*
X2605400Y-2209800D02*
G75*
G03*
X2605400Y-2209800I-40000J0D01*
G01*
X2605400Y-2463800D02*
G75*
G03*
X2605400Y-2463800I-40000J0D01*
G01*
X2605400Y-2717800D02*
G75*
G03*
X2605400Y-2717800I-40000J0D01*
G01*
X2605400Y-2971800D02*
G75*
G03*
X2605400Y-2971800I-40000J0D01*
G01*
X2605400Y-3225800D02*
G75*
G03*
X2605400Y-3225800I-40000J0D01*
G01*
X2605400Y-3479800D02*
G75*
G03*
X2605400Y-3479800I-40000J0D01*
G01*
X2605400Y-3733800D02*
G75*
G03*
X2605400Y-3733800I-40000J0D01*
G01*
X2605400Y-3987800D02*
G75*
G03*
X2605400Y-3987800I-40000J0D01*
G01*
X2961000Y-2209800D02*
G75*
G03*
X2961000Y-2209800I-40000J0D01*
G01*
X2961000Y-2463800D02*
G75*
G03*
X2961000Y-2463800I-40000J0D01*
G01*
X2961000Y-2717800D02*
G75*
G03*
X2961000Y-2717800I-40000J0D01*
G01*
X2961000Y-2971800D02*
G75*
G03*
X2961000Y-2971800I-40000J0D01*
G01*
X2961000Y-3225800D02*
G75*
G03*
X2961000Y-3225800I-40000J0D01*
G01*
X2961000Y-3479800D02*
G75*
G03*
X2961000Y-3479800I-40000J0D01*
G01*
X2961000Y-3733800D02*
G75*
G03*
X2961000Y-3733800I-40000J0D01*
G01*
X2961000Y-3987800D02*
G75*
G03*
X2961000Y-3987800I-40000J0D01*
G01*
X3367400Y-2184400D02*
G75*
G03*
X3367400Y-2184400I-40000J0D01*
G01*
X3367400Y-2565400D02*
G75*
G03*
X3367400Y-2565400I-40000J0D01*
G01*
X3367400Y-2971800D02*
G75*
G03*
X3367400Y-2971800I-40000J0D01*
G01*
X3367400Y-3403600D02*
G75*
G03*
X3367400Y-3403600I-40000J0D01*
G01*
X3367400Y-3835400D02*
G75*
G03*
X3367400Y-3835400I-40000J0D01*
G01*
X3367400Y-4267200D02*
G75*
G03*
X3367400Y-4267200I-40000J0D01*
G01*
X3367400Y-4699000D02*
G75*
G03*
X3367400Y-4699000I-40000J0D01*
G01*
X3367400Y-5130800D02*
G75*
G03*
X3367400Y-5130800I-40000J0D01*
G01*
X4637400Y-2184400D02*
G75*
G03*
X4637400Y-2184400I-40000J0D01*
G01*
X4637400Y-2565400D02*
G75*
G03*
X4637400Y-2565400I-40000J0D01*
G01*
X4637400Y-2971800D02*
G75*
G03*
X4637400Y-2971800I-40000J0D01*
G01*
X4637400Y-3403600D02*
G75*
G03*
X4637400Y-3403600I-40000J0D01*
G01*
X4637400Y-3835400D02*
G75*
G03*
X4637400Y-3835400I-40000J0D01*
G01*
X4637400Y-4267200D02*
G75*
G03*
X4637400Y-4267200I-40000J0D01*
G01*
X4637400Y-4699000D02*
G75*
G03*
X4637400Y-4699000I-40000J0D01*
G01*
X4637400Y-5130800D02*
G75*
G03*
X4637400Y-5130800I-40000J0D01*
G01*
X5169800Y-2970300D02*
G75*
G03*
X5169800Y-2970300I-40000J0D01*
G01*
X5169800Y-3224300D02*
G75*
G03*
X5169800Y-3224300I-40000J0D01*
G01*
X5169800Y-3478300D02*
G75*
G03*
X5169800Y-3478300I-40000J0D01*
G01*
X5169800Y-3732300D02*
G75*
G03*
X5169800Y-3732300I-40000J0D01*
G01*
X5169800Y-3986300D02*
G75*
G03*
X5169800Y-3986300I-40000J0D01*
G01*
X5169800Y-4240300D02*
G75*
G03*
X5169800Y-4240300I-40000J0D01*
G01*
X5169800Y-4494300D02*
G75*
G03*
X5169800Y-4494300I-40000J0D01*
G01*
X5169800Y-4748300D02*
G75*
G03*
X5169800Y-4748300I-40000J0D01*
G01*
X5170800Y-1804400D02*
G75*
G03*
X5170800Y-1804400I-40000J0D01*
G01*
X5170800Y-2566400D02*
G75*
G03*
X5170800Y-2566400I-40000J0D01*
G01*
X5424800Y-1804400D02*
G75*
G03*
X5424800Y-1804400I-40000J0D01*
G01*
X5424800Y-2566400D02*
G75*
G03*
X5424800Y-2566400I-40000J0D01*
G01*
X5678800Y-1804400D02*
G75*
G03*
X5678800Y-1804400I-40000J0D01*
G01*
X5678800Y-2566400D02*
G75*
G03*
X5678800Y-2566400I-40000J0D01*
G01*
X5931800Y-2970300D02*
G75*
G03*
X5931800Y-2970300I-40000J0D01*
G01*
X5931800Y-3224300D02*
G75*
G03*
X5931800Y-3224300I-40000J0D01*
G01*
X5931800Y-3478300D02*
G75*
G03*
X5931800Y-3478300I-40000J0D01*
G01*
X5931800Y-3732300D02*
G75*
G03*
X5931800Y-3732300I-40000J0D01*
G01*
X5931800Y-3986300D02*
G75*
G03*
X5931800Y-3986300I-40000J0D01*
G01*
X5931800Y-4240300D02*
G75*
G03*
X5931800Y-4240300I-40000J0D01*
G01*
X5931800Y-4494300D02*
G75*
G03*
X5931800Y-4494300I-40000J0D01*
G01*
X5931800Y-4748300D02*
G75*
G03*
X5931800Y-4748300I-40000J0D01*
G01*
X5932800Y-1804400D02*
G75*
G03*
X5932800Y-1804400I-40000J0D01*
G01*
X5932800Y-2566400D02*
G75*
G03*
X5932800Y-2566400I-40000J0D01*
G01*
X6186800Y-1804400D02*
G75*
G03*
X6186800Y-1804400I-40000J0D01*
G01*
X6186800Y-2566400D02*
G75*
G03*
X6186800Y-2566400I-40000J0D01*
G01*
X6440800Y-1804400D02*
G75*
G03*
X6440800Y-1804400I-40000J0D01*
G01*
X6440800Y-2566400D02*
G75*
G03*
X6440800Y-2566400I-40000J0D01*
G01*
X6694800Y-1804400D02*
G75*
G03*
X6694800Y-1804400I-40000J0D01*
G01*
X6694800Y-2566400D02*
G75*
G03*
X6694800Y-2566400I-40000J0D01*
G01*
X7277500Y-1804400D02*
G75*
G03*
X7277500Y-1804400I-40000J0D01*
G01*
X7277500Y-2566400D02*
G75*
G03*
X7277500Y-2566400I-40000J0D01*
G01*
X7329800Y-3124200D02*
G75*
G03*
X7329800Y-3124200I-40000J0D01*
G01*
X7329800Y-4924200D02*
G75*
G03*
X7329800Y-4924200I-40000J0D01*
G01*
X7531500Y-1804400D02*
G75*
G03*
X7531500Y-1804400I-40000J0D01*
G01*
X7531500Y-2566400D02*
G75*
G03*
X7531500Y-2566400I-40000J0D01*
G01*
X7583800Y-3124200D02*
G75*
G03*
X7583800Y-3124200I-40000J0D01*
G01*
X7583800Y-4924200D02*
G75*
G03*
X7583800Y-4924200I-40000J0D01*
G01*
X7785500Y-1804400D02*
G75*
G03*
X7785500Y-1804400I-40000J0D01*
G01*
X7785500Y-2566400D02*
G75*
G03*
X7785500Y-2566400I-40000J0D01*
G01*
X7837800Y-3124200D02*
G75*
G03*
X7837800Y-3124200I-40000J0D01*
G01*
X7837800Y-4924200D02*
G75*
G03*
X7837800Y-4924200I-40000J0D01*
G01*
X8039500Y-1804400D02*
G75*
G03*
X8039500Y-1804400I-40000J0D01*
G01*
X8039500Y-2566400D02*
G75*
G03*
X8039500Y-2566400I-40000J0D01*
G01*
X8091800Y-3124200D02*
G75*
G03*
X8091800Y-3124200I-40000J0D01*
G01*
X8091800Y-4924200D02*
G75*
G03*
X8091800Y-4924200I-40000J0D01*
G01*
X8293500Y-1804400D02*
G75*
G03*
X8293500Y-1804400I-40000J0D01*
G01*
X8293500Y-2566400D02*
G75*
G03*
X8293500Y-2566400I-40000J0D01*
G01*
X8345800Y-3124200D02*
G75*
G03*
X8345800Y-3124200I-40000J0D01*
G01*
X8345800Y-4924200D02*
G75*
G03*
X8345800Y-4924200I-40000J0D01*
G01*
X8547500Y-1804400D02*
G75*
G03*
X8547500Y-1804400I-40000J0D01*
G01*
X8547500Y-2566400D02*
G75*
G03*
X8547500Y-2566400I-40000J0D01*
G01*
X8599800Y-3124200D02*
G75*
G03*
X8599800Y-3124200I-40000J0D01*
G01*
X8599800Y-4924200D02*
G75*
G03*
X8599800Y-4924200I-40000J0D01*
G01*
X8801500Y-1804400D02*
G75*
G03*
X8801500Y-1804400I-40000J0D01*
G01*
X8801500Y-2566400D02*
G75*
G03*
X8801500Y-2566400I-40000J0D01*
G01*
X8853800Y-3124200D02*
G75*
G03*
X8853800Y-3124200I-40000J0D01*
G01*
X8853800Y-4924200D02*
G75*
G03*
X8853800Y-4924200I-40000J0D01*
G01*
X9055500Y-1804400D02*
G75*
G03*
X9055500Y-1804400I-40000J0D01*
G01*
X9055500Y-2566400D02*
G75*
G03*
X9055500Y-2566400I-40000J0D01*
G01*
X9107800Y-3124200D02*
G75*
G03*
X9107800Y-3124200I-40000J0D01*
G01*
X9107800Y-4924200D02*
G75*
G03*
X9107800Y-4924200I-40000J0D01*
G01*
X9361800Y-3124200D02*
G75*
G03*
X9361800Y-3124200I-40000J0D01*
G01*
X9361800Y-4924200D02*
G75*
G03*
X9361800Y-4924200I-40000J0D01*
G01*
D13*
X2072500Y-5011600D02*
X2072500Y-5101600D01*
X2027500Y-5056600D02*
X2117500Y-5056600D01*
X2072500Y-5265600D02*
X2072500Y-5355600D01*
X2027500Y-5310600D02*
X2117500Y-5310600D01*
X2809100Y-5011600D02*
X2809100Y-5101600D01*
X2764100Y-5056600D02*
X2854100Y-5056600D01*
X2809100Y-5265600D02*
X2809100Y-5355600D01*
X2764100Y-5310600D02*
X2854100Y-5310600D01*
D11*
X1750219Y-5775876D02*
X1750219Y-5575876D01*
X1750219Y-5575876D02*
X1797838Y-5575876D01*
X1797838Y-5575876D02*
X1826409Y-5585400D01*
X1826409Y-5585400D02*
X1845457Y-5604448D01*
X1845457Y-5604448D02*
X1854981Y-5623495D01*
X1854981Y-5623495D02*
X1864505Y-5661590D01*
X1864505Y-5661590D02*
X1864505Y-5690162D01*
X1864505Y-5690162D02*
X1854981Y-5728257D01*
X1854981Y-5728257D02*
X1845457Y-5747305D01*
X1845457Y-5747305D02*
X1826409Y-5766352D01*
X1826409Y-5766352D02*
X1797838Y-5775876D01*
X1797838Y-5775876D02*
X1750219Y-5775876D01*
X1950219Y-5775876D02*
X1950219Y-5642543D01*
X1950219Y-5680638D02*
X1959743Y-5661590D01*
X1959743Y-5661590D02*
X1969267Y-5652067D01*
X1969267Y-5652067D02*
X1988314Y-5642543D01*
X1988314Y-5642543D02*
X2007362Y-5642543D01*
X2074028Y-5775876D02*
X2074028Y-5642543D01*
X2074028Y-5575876D02*
X2064505Y-5585400D01*
X2064505Y-5585400D02*
X2074028Y-5594924D01*
X2074028Y-5594924D02*
X2083552Y-5585400D01*
X2083552Y-5585400D02*
X2074028Y-5575876D01*
X2074028Y-5575876D02*
X2074028Y-5594924D01*
X2197838Y-5775876D02*
X2178790Y-5766352D01*
X2178790Y-5766352D02*
X2169267Y-5747305D01*
X2169267Y-5747305D02*
X2169267Y-5575876D01*
X2302600Y-5775876D02*
X2283552Y-5766352D01*
X2283552Y-5766352D02*
X2274029Y-5747305D01*
X2274029Y-5747305D02*
X2274029Y-5575876D01*
X2498790Y-5775876D02*
X2498790Y-5575876D01*
X2498790Y-5575876D02*
X2565457Y-5718733D01*
X2565457Y-5718733D02*
X2632124Y-5575876D01*
X2632124Y-5575876D02*
X2632124Y-5775876D01*
X2813076Y-5775876D02*
X2813076Y-5671114D01*
X2813076Y-5671114D02*
X2803552Y-5652067D01*
X2803552Y-5652067D02*
X2784505Y-5642543D01*
X2784505Y-5642543D02*
X2746409Y-5642543D01*
X2746409Y-5642543D02*
X2727362Y-5652067D01*
X2813076Y-5766352D02*
X2794029Y-5775876D01*
X2794029Y-5775876D02*
X2746409Y-5775876D01*
X2746409Y-5775876D02*
X2727362Y-5766352D01*
X2727362Y-5766352D02*
X2717838Y-5747305D01*
X2717838Y-5747305D02*
X2717838Y-5728257D01*
X2717838Y-5728257D02*
X2727362Y-5709209D01*
X2727362Y-5709209D02*
X2746409Y-5699686D01*
X2746409Y-5699686D02*
X2794029Y-5699686D01*
X2794029Y-5699686D02*
X2813076Y-5690162D01*
X2908314Y-5642543D02*
X2908314Y-5842543D01*
X2908314Y-5652067D02*
X2927362Y-5642543D01*
X2927362Y-5642543D02*
X2965457Y-5642543D01*
X2965457Y-5642543D02*
X2984505Y-5652067D01*
X2984505Y-5652067D02*
X2994028Y-5661590D01*
X2994028Y-5661590D02*
X3003552Y-5680638D01*
X3003552Y-5680638D02*
X3003552Y-5737781D01*
X3003552Y-5737781D02*
X2994028Y-5756828D01*
X2994028Y-5756828D02*
X2984505Y-5766352D01*
X2984505Y-5766352D02*
X2965457Y-5775876D01*
X2965457Y-5775876D02*
X2927362Y-5775876D01*
X2927362Y-5775876D02*
X2908314Y-5766352D01*
X3089267Y-5756828D02*
X3098790Y-5766352D01*
X3098790Y-5766352D02*
X3089267Y-5775876D01*
X3089267Y-5775876D02*
X3079743Y-5766352D01*
X3079743Y-5766352D02*
X3089267Y-5756828D01*
X3089267Y-5756828D02*
X3089267Y-5775876D01*
X3089267Y-5652067D02*
X3098790Y-5661590D01*
X3098790Y-5661590D02*
X3089267Y-5671114D01*
X3089267Y-5671114D02*
X3079743Y-5661590D01*
X3079743Y-5661590D02*
X3089267Y-5652067D01*
X3089267Y-5652067D02*
X3089267Y-5671114D01*
D12*
X1422600Y-6082400D02*
X1502600Y-6162400D01*
X1502600Y-6082400D02*
X1422600Y-6162400D01*
D11*
X1788314Y-5995876D02*
X1807362Y-5995876D01*
X1807362Y-5995876D02*
X1826409Y-6005400D01*
X1826409Y-6005400D02*
X1835933Y-6014924D01*
X1835933Y-6014924D02*
X1845457Y-6033971D01*
X1845457Y-6033971D02*
X1854981Y-6072067D01*
X1854981Y-6072067D02*
X1854981Y-6119686D01*
X1854981Y-6119686D02*
X1845457Y-6157781D01*
X1845457Y-6157781D02*
X1835933Y-6176828D01*
X1835933Y-6176828D02*
X1826409Y-6186352D01*
X1826409Y-6186352D02*
X1807362Y-6195876D01*
X1807362Y-6195876D02*
X1788314Y-6195876D01*
X1788314Y-6195876D02*
X1769267Y-6186352D01*
X1769267Y-6186352D02*
X1759743Y-6176828D01*
X1759743Y-6176828D02*
X1750219Y-6157781D01*
X1750219Y-6157781D02*
X1740695Y-6119686D01*
X1740695Y-6119686D02*
X1740695Y-6072067D01*
X1740695Y-6072067D02*
X1750219Y-6033971D01*
X1750219Y-6033971D02*
X1759743Y-6014924D01*
X1759743Y-6014924D02*
X1769267Y-6005400D01*
X1769267Y-6005400D02*
X1788314Y-5995876D01*
X1940695Y-6176828D02*
X1950219Y-6186352D01*
X1950219Y-6186352D02*
X1940695Y-6195876D01*
X1940695Y-6195876D02*
X1931171Y-6186352D01*
X1931171Y-6186352D02*
X1940695Y-6176828D01*
X1940695Y-6176828D02*
X1940695Y-6195876D01*
X2064505Y-6081590D02*
X2045457Y-6072067D01*
X2045457Y-6072067D02*
X2035933Y-6062543D01*
X2035933Y-6062543D02*
X2026409Y-6043495D01*
X2026409Y-6043495D02*
X2026409Y-6033971D01*
X2026409Y-6033971D02*
X2035933Y-6014924D01*
X2035933Y-6014924D02*
X2045457Y-6005400D01*
X2045457Y-6005400D02*
X2064505Y-5995876D01*
X2064505Y-5995876D02*
X2102600Y-5995876D01*
X2102600Y-5995876D02*
X2121648Y-6005400D01*
X2121648Y-6005400D02*
X2131171Y-6014924D01*
X2131171Y-6014924D02*
X2140695Y-6033971D01*
X2140695Y-6033971D02*
X2140695Y-6043495D01*
X2140695Y-6043495D02*
X2131171Y-6062543D01*
X2131171Y-6062543D02*
X2121648Y-6072067D01*
X2121648Y-6072067D02*
X2102600Y-6081590D01*
X2102600Y-6081590D02*
X2064505Y-6081590D01*
X2064505Y-6081590D02*
X2045457Y-6091114D01*
X2045457Y-6091114D02*
X2035933Y-6100638D01*
X2035933Y-6100638D02*
X2026409Y-6119686D01*
X2026409Y-6119686D02*
X2026409Y-6157781D01*
X2026409Y-6157781D02*
X2035933Y-6176828D01*
X2035933Y-6176828D02*
X2045457Y-6186352D01*
X2045457Y-6186352D02*
X2064505Y-6195876D01*
X2064505Y-6195876D02*
X2102600Y-6195876D01*
X2102600Y-6195876D02*
X2121648Y-6186352D01*
X2121648Y-6186352D02*
X2131171Y-6176828D01*
X2131171Y-6176828D02*
X2140695Y-6157781D01*
X2140695Y-6157781D02*
X2140695Y-6119686D01*
X2140695Y-6119686D02*
X2131171Y-6100638D01*
X2131171Y-6100638D02*
X2121648Y-6091114D01*
X2121648Y-6091114D02*
X2102600Y-6081590D01*
X2264505Y-5995876D02*
X2283552Y-5995876D01*
X2283552Y-5995876D02*
X2302600Y-6005400D01*
X2302600Y-6005400D02*
X2312124Y-6014924D01*
X2312124Y-6014924D02*
X2321648Y-6033971D01*
X2321648Y-6033971D02*
X2331171Y-6072067D01*
X2331171Y-6072067D02*
X2331171Y-6119686D01*
X2331171Y-6119686D02*
X2321648Y-6157781D01*
X2321648Y-6157781D02*
X2312124Y-6176828D01*
X2312124Y-6176828D02*
X2302600Y-6186352D01*
X2302600Y-6186352D02*
X2283552Y-6195876D01*
X2283552Y-6195876D02*
X2264505Y-6195876D01*
X2264505Y-6195876D02*
X2245457Y-6186352D01*
X2245457Y-6186352D02*
X2235933Y-6176828D01*
X2235933Y-6176828D02*
X2226410Y-6157781D01*
X2226410Y-6157781D02*
X2216886Y-6119686D01*
X2216886Y-6119686D02*
X2216886Y-6072067D01*
X2216886Y-6072067D02*
X2226410Y-6033971D01*
X2226410Y-6033971D02*
X2235933Y-6014924D01*
X2235933Y-6014924D02*
X2245457Y-6005400D01*
X2245457Y-6005400D02*
X2264505Y-5995876D01*
X2454981Y-5995876D02*
X2474029Y-5995876D01*
X2474029Y-5995876D02*
X2493076Y-6005400D01*
X2493076Y-6005400D02*
X2502600Y-6014924D01*
X2502600Y-6014924D02*
X2512124Y-6033971D01*
X2512124Y-6033971D02*
X2521648Y-6072067D01*
X2521648Y-6072067D02*
X2521648Y-6119686D01*
X2521648Y-6119686D02*
X2512124Y-6157781D01*
X2512124Y-6157781D02*
X2502600Y-6176828D01*
X2502600Y-6176828D02*
X2493076Y-6186352D01*
X2493076Y-6186352D02*
X2474029Y-6195876D01*
X2474029Y-6195876D02*
X2454981Y-6195876D01*
X2454981Y-6195876D02*
X2435933Y-6186352D01*
X2435933Y-6186352D02*
X2426410Y-6176828D01*
X2426410Y-6176828D02*
X2416886Y-6157781D01*
X2416886Y-6157781D02*
X2407362Y-6119686D01*
X2407362Y-6119686D02*
X2407362Y-6072067D01*
X2407362Y-6072067D02*
X2416886Y-6033971D01*
X2416886Y-6033971D02*
X2426410Y-6014924D01*
X2426410Y-6014924D02*
X2435933Y-6005400D01*
X2435933Y-6005400D02*
X2454981Y-5995876D01*
X2607362Y-6195876D02*
X2607362Y-6062543D01*
X2607362Y-6081590D02*
X2616886Y-6072067D01*
X2616886Y-6072067D02*
X2635933Y-6062543D01*
X2635933Y-6062543D02*
X2664505Y-6062543D01*
X2664505Y-6062543D02*
X2683552Y-6072067D01*
X2683552Y-6072067D02*
X2693076Y-6091114D01*
X2693076Y-6091114D02*
X2693076Y-6195876D01*
X2693076Y-6091114D02*
X2702600Y-6072067D01*
X2702600Y-6072067D02*
X2721648Y-6062543D01*
X2721648Y-6062543D02*
X2750219Y-6062543D01*
X2750219Y-6062543D02*
X2769267Y-6072067D01*
X2769267Y-6072067D02*
X2778791Y-6091114D01*
X2778791Y-6091114D02*
X2778791Y-6195876D01*
X2874029Y-6195876D02*
X2874029Y-6062543D01*
X2874029Y-6081590D02*
X2883552Y-6072067D01*
X2883552Y-6072067D02*
X2902600Y-6062543D01*
X2902600Y-6062543D02*
X2931171Y-6062543D01*
X2931171Y-6062543D02*
X2950219Y-6072067D01*
X2950219Y-6072067D02*
X2959743Y-6091114D01*
X2959743Y-6091114D02*
X2959743Y-6195876D01*
X2959743Y-6091114D02*
X2969267Y-6072067D01*
X2969267Y-6072067D02*
X2988314Y-6062543D01*
X2988314Y-6062543D02*
X3016886Y-6062543D01*
X3016886Y-6062543D02*
X3035933Y-6072067D01*
X3035933Y-6072067D02*
X3045457Y-6091114D01*
X3045457Y-6091114D02*
X3045457Y-6195876D01*
X3403552Y-5986352D02*
X3232124Y-6243495D01*
X3628314Y-5995876D02*
X3647362Y-5995876D01*
X3647362Y-5995876D02*
X3666410Y-6005400D01*
X3666410Y-6005400D02*
X3675933Y-6014924D01*
X3675933Y-6014924D02*
X3685457Y-6033971D01*
X3685457Y-6033971D02*
X3694981Y-6072067D01*
X3694981Y-6072067D02*
X3694981Y-6119686D01*
X3694981Y-6119686D02*
X3685457Y-6157781D01*
X3685457Y-6157781D02*
X3675933Y-6176828D01*
X3675933Y-6176828D02*
X3666410Y-6186352D01*
X3666410Y-6186352D02*
X3647362Y-6195876D01*
X3647362Y-6195876D02*
X3628314Y-6195876D01*
X3628314Y-6195876D02*
X3609267Y-6186352D01*
X3609267Y-6186352D02*
X3599743Y-6176828D01*
X3599743Y-6176828D02*
X3590219Y-6157781D01*
X3590219Y-6157781D02*
X3580695Y-6119686D01*
X3580695Y-6119686D02*
X3580695Y-6072067D01*
X3580695Y-6072067D02*
X3590219Y-6033971D01*
X3590219Y-6033971D02*
X3599743Y-6014924D01*
X3599743Y-6014924D02*
X3609267Y-6005400D01*
X3609267Y-6005400D02*
X3628314Y-5995876D01*
X3780695Y-6176828D02*
X3790219Y-6186352D01*
X3790219Y-6186352D02*
X3780695Y-6195876D01*
X3780695Y-6195876D02*
X3771171Y-6186352D01*
X3771171Y-6186352D02*
X3780695Y-6176828D01*
X3780695Y-6176828D02*
X3780695Y-6195876D01*
X3914029Y-5995876D02*
X3933076Y-5995876D01*
X3933076Y-5995876D02*
X3952124Y-6005400D01*
X3952124Y-6005400D02*
X3961648Y-6014924D01*
X3961648Y-6014924D02*
X3971171Y-6033971D01*
X3971171Y-6033971D02*
X3980695Y-6072067D01*
X3980695Y-6072067D02*
X3980695Y-6119686D01*
X3980695Y-6119686D02*
X3971171Y-6157781D01*
X3971171Y-6157781D02*
X3961648Y-6176828D01*
X3961648Y-6176828D02*
X3952124Y-6186352D01*
X3952124Y-6186352D02*
X3933076Y-6195876D01*
X3933076Y-6195876D02*
X3914029Y-6195876D01*
X3914029Y-6195876D02*
X3894981Y-6186352D01*
X3894981Y-6186352D02*
X3885457Y-6176828D01*
X3885457Y-6176828D02*
X3875933Y-6157781D01*
X3875933Y-6157781D02*
X3866410Y-6119686D01*
X3866410Y-6119686D02*
X3866410Y-6072067D01*
X3866410Y-6072067D02*
X3875933Y-6033971D01*
X3875933Y-6033971D02*
X3885457Y-6014924D01*
X3885457Y-6014924D02*
X3894981Y-6005400D01*
X3894981Y-6005400D02*
X3914029Y-5995876D01*
X4047362Y-5995876D02*
X4171171Y-5995876D01*
X4171171Y-5995876D02*
X4104505Y-6072067D01*
X4104505Y-6072067D02*
X4133076Y-6072067D01*
X4133076Y-6072067D02*
X4152124Y-6081590D01*
X4152124Y-6081590D02*
X4161648Y-6091114D01*
X4161648Y-6091114D02*
X4171171Y-6110162D01*
X4171171Y-6110162D02*
X4171171Y-6157781D01*
X4171171Y-6157781D02*
X4161648Y-6176828D01*
X4161648Y-6176828D02*
X4152124Y-6186352D01*
X4152124Y-6186352D02*
X4133076Y-6195876D01*
X4133076Y-6195876D02*
X4075933Y-6195876D01*
X4075933Y-6195876D02*
X4056886Y-6186352D01*
X4056886Y-6186352D02*
X4047362Y-6176828D01*
X4361648Y-6195876D02*
X4247362Y-6195876D01*
X4304505Y-6195876D02*
X4304505Y-5995876D01*
X4304505Y-5995876D02*
X4285457Y-6024448D01*
X4285457Y-6024448D02*
X4266410Y-6043495D01*
X4266410Y-6043495D02*
X4247362Y-6053019D01*
X4542600Y-5995876D02*
X4447362Y-5995876D01*
X4447362Y-5995876D02*
X4437838Y-6091114D01*
X4437838Y-6091114D02*
X4447362Y-6081590D01*
X4447362Y-6081590D02*
X4466410Y-6072067D01*
X4466410Y-6072067D02*
X4514029Y-6072067D01*
X4514029Y-6072067D02*
X4533076Y-6081590D01*
X4533076Y-6081590D02*
X4542600Y-6091114D01*
X4542600Y-6091114D02*
X4552124Y-6110162D01*
X4552124Y-6110162D02*
X4552124Y-6157781D01*
X4552124Y-6157781D02*
X4542600Y-6176828D01*
X4542600Y-6176828D02*
X4533076Y-6186352D01*
X4533076Y-6186352D02*
X4514029Y-6195876D01*
X4514029Y-6195876D02*
X4466410Y-6195876D01*
X4466410Y-6195876D02*
X4447362Y-6186352D01*
X4447362Y-6186352D02*
X4437838Y-6176828D01*
X4628314Y-5995876D02*
X4628314Y-6033971D01*
X4704505Y-5995876D02*
X4704505Y-6033971D01*
X4967362Y-6272067D02*
X4957838Y-6262543D01*
X4957838Y-6262543D02*
X4938791Y-6233971D01*
X4938791Y-6233971D02*
X4929267Y-6214924D01*
X4929267Y-6214924D02*
X4919743Y-6186352D01*
X4919743Y-6186352D02*
X4910219Y-6138733D01*
X4910219Y-6138733D02*
X4910219Y-6100638D01*
X4910219Y-6100638D02*
X4919743Y-6053019D01*
X4919743Y-6053019D02*
X4929267Y-6024448D01*
X4929267Y-6024448D02*
X4938791Y-6005400D01*
X4938791Y-6005400D02*
X4957838Y-5976828D01*
X4957838Y-5976828D02*
X4967362Y-5967305D01*
X5034029Y-6014924D02*
X5043553Y-6005400D01*
X5043553Y-6005400D02*
X5062600Y-5995876D01*
X5062600Y-5995876D02*
X5110219Y-5995876D01*
X5110219Y-5995876D02*
X5129267Y-6005400D01*
X5129267Y-6005400D02*
X5138791Y-6014924D01*
X5138791Y-6014924D02*
X5148314Y-6033971D01*
X5148314Y-6033971D02*
X5148314Y-6053019D01*
X5148314Y-6053019D02*
X5138791Y-6081590D01*
X5138791Y-6081590D02*
X5024505Y-6195876D01*
X5024505Y-6195876D02*
X5148314Y-6195876D01*
X5354029Y-6195876D02*
X5354029Y-5995876D01*
X5439743Y-6195876D02*
X5439743Y-6091114D01*
X5439743Y-6091114D02*
X5430219Y-6072067D01*
X5430219Y-6072067D02*
X5411172Y-6062543D01*
X5411172Y-6062543D02*
X5382600Y-6062543D01*
X5382600Y-6062543D02*
X5363553Y-6072067D01*
X5363553Y-6072067D02*
X5354029Y-6081590D01*
X5563553Y-6195876D02*
X5544505Y-6186352D01*
X5544505Y-6186352D02*
X5534981Y-6176828D01*
X5534981Y-6176828D02*
X5525457Y-6157781D01*
X5525457Y-6157781D02*
X5525457Y-6100638D01*
X5525457Y-6100638D02*
X5534981Y-6081590D01*
X5534981Y-6081590D02*
X5544505Y-6072067D01*
X5544505Y-6072067D02*
X5563553Y-6062543D01*
X5563553Y-6062543D02*
X5592124Y-6062543D01*
X5592124Y-6062543D02*
X5611172Y-6072067D01*
X5611172Y-6072067D02*
X5620695Y-6081590D01*
X5620695Y-6081590D02*
X5630219Y-6100638D01*
X5630219Y-6100638D02*
X5630219Y-6157781D01*
X5630219Y-6157781D02*
X5620695Y-6176828D01*
X5620695Y-6176828D02*
X5611172Y-6186352D01*
X5611172Y-6186352D02*
X5592124Y-6195876D01*
X5592124Y-6195876D02*
X5563553Y-6195876D01*
X5744505Y-6195876D02*
X5725457Y-6186352D01*
X5725457Y-6186352D02*
X5715933Y-6167305D01*
X5715933Y-6167305D02*
X5715933Y-5995876D01*
X5896886Y-6186352D02*
X5877838Y-6195876D01*
X5877838Y-6195876D02*
X5839743Y-6195876D01*
X5839743Y-6195876D02*
X5820695Y-6186352D01*
X5820695Y-6186352D02*
X5811172Y-6167305D01*
X5811172Y-6167305D02*
X5811172Y-6091114D01*
X5811172Y-6091114D02*
X5820695Y-6072067D01*
X5820695Y-6072067D02*
X5839743Y-6062543D01*
X5839743Y-6062543D02*
X5877838Y-6062543D01*
X5877838Y-6062543D02*
X5896886Y-6072067D01*
X5896886Y-6072067D02*
X5906410Y-6091114D01*
X5906410Y-6091114D02*
X5906410Y-6110162D01*
X5906410Y-6110162D02*
X5811172Y-6129209D01*
X5982600Y-6186352D02*
X6001648Y-6195876D01*
X6001648Y-6195876D02*
X6039743Y-6195876D01*
X6039743Y-6195876D02*
X6058791Y-6186352D01*
X6058791Y-6186352D02*
X6068314Y-6167305D01*
X6068314Y-6167305D02*
X6068314Y-6157781D01*
X6068314Y-6157781D02*
X6058791Y-6138733D01*
X6058791Y-6138733D02*
X6039743Y-6129209D01*
X6039743Y-6129209D02*
X6011172Y-6129209D01*
X6011172Y-6129209D02*
X5992124Y-6119686D01*
X5992124Y-6119686D02*
X5982600Y-6100638D01*
X5982600Y-6100638D02*
X5982600Y-6091114D01*
X5982600Y-6091114D02*
X5992124Y-6072067D01*
X5992124Y-6072067D02*
X6011172Y-6062543D01*
X6011172Y-6062543D02*
X6039743Y-6062543D01*
X6039743Y-6062543D02*
X6058791Y-6072067D01*
X6134981Y-6272067D02*
X6144505Y-6262543D01*
X6144505Y-6262543D02*
X6163553Y-6233971D01*
X6163553Y-6233971D02*
X6173076Y-6214924D01*
X6173076Y-6214924D02*
X6182600Y-6186352D01*
X6182600Y-6186352D02*
X6192124Y-6138733D01*
X6192124Y-6138733D02*
X6192124Y-6100638D01*
X6192124Y-6100638D02*
X6182600Y-6053019D01*
X6182600Y-6053019D02*
X6173076Y-6024448D01*
X6173076Y-6024448D02*
X6163553Y-6005400D01*
X6163553Y-6005400D02*
X6144505Y-5976828D01*
X6144505Y-5976828D02*
X6134981Y-5967305D01*
D12*
X1502600Y-6386400D02*
G75*
G03*
X1502600Y-6386400I-40000J0D01*
G01*
D11*
X1788314Y-6259876D02*
X1807362Y-6259876D01*
X1807362Y-6259876D02*
X1826409Y-6269400D01*
X1826409Y-6269400D02*
X1835933Y-6278924D01*
X1835933Y-6278924D02*
X1845457Y-6297971D01*
X1845457Y-6297971D02*
X1854981Y-6336067D01*
X1854981Y-6336067D02*
X1854981Y-6383686D01*
X1854981Y-6383686D02*
X1845457Y-6421781D01*
X1845457Y-6421781D02*
X1835933Y-6440828D01*
X1835933Y-6440828D02*
X1826409Y-6450352D01*
X1826409Y-6450352D02*
X1807362Y-6459876D01*
X1807362Y-6459876D02*
X1788314Y-6459876D01*
X1788314Y-6459876D02*
X1769267Y-6450352D01*
X1769267Y-6450352D02*
X1759743Y-6440828D01*
X1759743Y-6440828D02*
X1750219Y-6421781D01*
X1750219Y-6421781D02*
X1740695Y-6383686D01*
X1740695Y-6383686D02*
X1740695Y-6336067D01*
X1740695Y-6336067D02*
X1750219Y-6297971D01*
X1750219Y-6297971D02*
X1759743Y-6278924D01*
X1759743Y-6278924D02*
X1769267Y-6269400D01*
X1769267Y-6269400D02*
X1788314Y-6259876D01*
X1940695Y-6440828D02*
X1950219Y-6450352D01*
X1950219Y-6450352D02*
X1940695Y-6459876D01*
X1940695Y-6459876D02*
X1931171Y-6450352D01*
X1931171Y-6450352D02*
X1940695Y-6440828D01*
X1940695Y-6440828D02*
X1940695Y-6459876D01*
X2064505Y-6345590D02*
X2045457Y-6336067D01*
X2045457Y-6336067D02*
X2035933Y-6326543D01*
X2035933Y-6326543D02*
X2026409Y-6307495D01*
X2026409Y-6307495D02*
X2026409Y-6297971D01*
X2026409Y-6297971D02*
X2035933Y-6278924D01*
X2035933Y-6278924D02*
X2045457Y-6269400D01*
X2045457Y-6269400D02*
X2064505Y-6259876D01*
X2064505Y-6259876D02*
X2102600Y-6259876D01*
X2102600Y-6259876D02*
X2121648Y-6269400D01*
X2121648Y-6269400D02*
X2131171Y-6278924D01*
X2131171Y-6278924D02*
X2140695Y-6297971D01*
X2140695Y-6297971D02*
X2140695Y-6307495D01*
X2140695Y-6307495D02*
X2131171Y-6326543D01*
X2131171Y-6326543D02*
X2121648Y-6336067D01*
X2121648Y-6336067D02*
X2102600Y-6345590D01*
X2102600Y-6345590D02*
X2064505Y-6345590D01*
X2064505Y-6345590D02*
X2045457Y-6355114D01*
X2045457Y-6355114D02*
X2035933Y-6364638D01*
X2035933Y-6364638D02*
X2026409Y-6383686D01*
X2026409Y-6383686D02*
X2026409Y-6421781D01*
X2026409Y-6421781D02*
X2035933Y-6440828D01*
X2035933Y-6440828D02*
X2045457Y-6450352D01*
X2045457Y-6450352D02*
X2064505Y-6459876D01*
X2064505Y-6459876D02*
X2102600Y-6459876D01*
X2102600Y-6459876D02*
X2121648Y-6450352D01*
X2121648Y-6450352D02*
X2131171Y-6440828D01*
X2131171Y-6440828D02*
X2140695Y-6421781D01*
X2140695Y-6421781D02*
X2140695Y-6383686D01*
X2140695Y-6383686D02*
X2131171Y-6364638D01*
X2131171Y-6364638D02*
X2121648Y-6355114D01*
X2121648Y-6355114D02*
X2102600Y-6345590D01*
X2264505Y-6259876D02*
X2283552Y-6259876D01*
X2283552Y-6259876D02*
X2302600Y-6269400D01*
X2302600Y-6269400D02*
X2312124Y-6278924D01*
X2312124Y-6278924D02*
X2321648Y-6297971D01*
X2321648Y-6297971D02*
X2331171Y-6336067D01*
X2331171Y-6336067D02*
X2331171Y-6383686D01*
X2331171Y-6383686D02*
X2321648Y-6421781D01*
X2321648Y-6421781D02*
X2312124Y-6440828D01*
X2312124Y-6440828D02*
X2302600Y-6450352D01*
X2302600Y-6450352D02*
X2283552Y-6459876D01*
X2283552Y-6459876D02*
X2264505Y-6459876D01*
X2264505Y-6459876D02*
X2245457Y-6450352D01*
X2245457Y-6450352D02*
X2235933Y-6440828D01*
X2235933Y-6440828D02*
X2226410Y-6421781D01*
X2226410Y-6421781D02*
X2216886Y-6383686D01*
X2216886Y-6383686D02*
X2216886Y-6336067D01*
X2216886Y-6336067D02*
X2226410Y-6297971D01*
X2226410Y-6297971D02*
X2235933Y-6278924D01*
X2235933Y-6278924D02*
X2245457Y-6269400D01*
X2245457Y-6269400D02*
X2264505Y-6259876D01*
X2454981Y-6259876D02*
X2474029Y-6259876D01*
X2474029Y-6259876D02*
X2493076Y-6269400D01*
X2493076Y-6269400D02*
X2502600Y-6278924D01*
X2502600Y-6278924D02*
X2512124Y-6297971D01*
X2512124Y-6297971D02*
X2521648Y-6336067D01*
X2521648Y-6336067D02*
X2521648Y-6383686D01*
X2521648Y-6383686D02*
X2512124Y-6421781D01*
X2512124Y-6421781D02*
X2502600Y-6440828D01*
X2502600Y-6440828D02*
X2493076Y-6450352D01*
X2493076Y-6450352D02*
X2474029Y-6459876D01*
X2474029Y-6459876D02*
X2454981Y-6459876D01*
X2454981Y-6459876D02*
X2435933Y-6450352D01*
X2435933Y-6450352D02*
X2426410Y-6440828D01*
X2426410Y-6440828D02*
X2416886Y-6421781D01*
X2416886Y-6421781D02*
X2407362Y-6383686D01*
X2407362Y-6383686D02*
X2407362Y-6336067D01*
X2407362Y-6336067D02*
X2416886Y-6297971D01*
X2416886Y-6297971D02*
X2426410Y-6278924D01*
X2426410Y-6278924D02*
X2435933Y-6269400D01*
X2435933Y-6269400D02*
X2454981Y-6259876D01*
X2607362Y-6459876D02*
X2607362Y-6326543D01*
X2607362Y-6345590D02*
X2616886Y-6336067D01*
X2616886Y-6336067D02*
X2635933Y-6326543D01*
X2635933Y-6326543D02*
X2664505Y-6326543D01*
X2664505Y-6326543D02*
X2683552Y-6336067D01*
X2683552Y-6336067D02*
X2693076Y-6355114D01*
X2693076Y-6355114D02*
X2693076Y-6459876D01*
X2693076Y-6355114D02*
X2702600Y-6336067D01*
X2702600Y-6336067D02*
X2721648Y-6326543D01*
X2721648Y-6326543D02*
X2750219Y-6326543D01*
X2750219Y-6326543D02*
X2769267Y-6336067D01*
X2769267Y-6336067D02*
X2778791Y-6355114D01*
X2778791Y-6355114D02*
X2778791Y-6459876D01*
X2874029Y-6459876D02*
X2874029Y-6326543D01*
X2874029Y-6345590D02*
X2883552Y-6336067D01*
X2883552Y-6336067D02*
X2902600Y-6326543D01*
X2902600Y-6326543D02*
X2931171Y-6326543D01*
X2931171Y-6326543D02*
X2950219Y-6336067D01*
X2950219Y-6336067D02*
X2959743Y-6355114D01*
X2959743Y-6355114D02*
X2959743Y-6459876D01*
X2959743Y-6355114D02*
X2969267Y-6336067D01*
X2969267Y-6336067D02*
X2988314Y-6326543D01*
X2988314Y-6326543D02*
X3016886Y-6326543D01*
X3016886Y-6326543D02*
X3035933Y-6336067D01*
X3035933Y-6336067D02*
X3045457Y-6355114D01*
X3045457Y-6355114D02*
X3045457Y-6459876D01*
X3403552Y-6250352D02*
X3232124Y-6507495D01*
X3628314Y-6259876D02*
X3647362Y-6259876D01*
X3647362Y-6259876D02*
X3666410Y-6269400D01*
X3666410Y-6269400D02*
X3675933Y-6278924D01*
X3675933Y-6278924D02*
X3685457Y-6297971D01*
X3685457Y-6297971D02*
X3694981Y-6336067D01*
X3694981Y-6336067D02*
X3694981Y-6383686D01*
X3694981Y-6383686D02*
X3685457Y-6421781D01*
X3685457Y-6421781D02*
X3675933Y-6440828D01*
X3675933Y-6440828D02*
X3666410Y-6450352D01*
X3666410Y-6450352D02*
X3647362Y-6459876D01*
X3647362Y-6459876D02*
X3628314Y-6459876D01*
X3628314Y-6459876D02*
X3609267Y-6450352D01*
X3609267Y-6450352D02*
X3599743Y-6440828D01*
X3599743Y-6440828D02*
X3590219Y-6421781D01*
X3590219Y-6421781D02*
X3580695Y-6383686D01*
X3580695Y-6383686D02*
X3580695Y-6336067D01*
X3580695Y-6336067D02*
X3590219Y-6297971D01*
X3590219Y-6297971D02*
X3599743Y-6278924D01*
X3599743Y-6278924D02*
X3609267Y-6269400D01*
X3609267Y-6269400D02*
X3628314Y-6259876D01*
X3780695Y-6440828D02*
X3790219Y-6450352D01*
X3790219Y-6450352D02*
X3780695Y-6459876D01*
X3780695Y-6459876D02*
X3771171Y-6450352D01*
X3771171Y-6450352D02*
X3780695Y-6440828D01*
X3780695Y-6440828D02*
X3780695Y-6459876D01*
X3914029Y-6259876D02*
X3933076Y-6259876D01*
X3933076Y-6259876D02*
X3952124Y-6269400D01*
X3952124Y-6269400D02*
X3961648Y-6278924D01*
X3961648Y-6278924D02*
X3971171Y-6297971D01*
X3971171Y-6297971D02*
X3980695Y-6336067D01*
X3980695Y-6336067D02*
X3980695Y-6383686D01*
X3980695Y-6383686D02*
X3971171Y-6421781D01*
X3971171Y-6421781D02*
X3961648Y-6440828D01*
X3961648Y-6440828D02*
X3952124Y-6450352D01*
X3952124Y-6450352D02*
X3933076Y-6459876D01*
X3933076Y-6459876D02*
X3914029Y-6459876D01*
X3914029Y-6459876D02*
X3894981Y-6450352D01*
X3894981Y-6450352D02*
X3885457Y-6440828D01*
X3885457Y-6440828D02*
X3875933Y-6421781D01*
X3875933Y-6421781D02*
X3866410Y-6383686D01*
X3866410Y-6383686D02*
X3866410Y-6336067D01*
X3866410Y-6336067D02*
X3875933Y-6297971D01*
X3875933Y-6297971D02*
X3885457Y-6278924D01*
X3885457Y-6278924D02*
X3894981Y-6269400D01*
X3894981Y-6269400D02*
X3914029Y-6259876D01*
X4047362Y-6259876D02*
X4171171Y-6259876D01*
X4171171Y-6259876D02*
X4104505Y-6336067D01*
X4104505Y-6336067D02*
X4133076Y-6336067D01*
X4133076Y-6336067D02*
X4152124Y-6345590D01*
X4152124Y-6345590D02*
X4161648Y-6355114D01*
X4161648Y-6355114D02*
X4171171Y-6374162D01*
X4171171Y-6374162D02*
X4171171Y-6421781D01*
X4171171Y-6421781D02*
X4161648Y-6440828D01*
X4161648Y-6440828D02*
X4152124Y-6450352D01*
X4152124Y-6450352D02*
X4133076Y-6459876D01*
X4133076Y-6459876D02*
X4075933Y-6459876D01*
X4075933Y-6459876D02*
X4056886Y-6450352D01*
X4056886Y-6450352D02*
X4047362Y-6440828D01*
X4361648Y-6459876D02*
X4247362Y-6459876D01*
X4304505Y-6459876D02*
X4304505Y-6259876D01*
X4304505Y-6259876D02*
X4285457Y-6288448D01*
X4285457Y-6288448D02*
X4266410Y-6307495D01*
X4266410Y-6307495D02*
X4247362Y-6317019D01*
X4542600Y-6259876D02*
X4447362Y-6259876D01*
X4447362Y-6259876D02*
X4437838Y-6355114D01*
X4437838Y-6355114D02*
X4447362Y-6345590D01*
X4447362Y-6345590D02*
X4466410Y-6336067D01*
X4466410Y-6336067D02*
X4514029Y-6336067D01*
X4514029Y-6336067D02*
X4533076Y-6345590D01*
X4533076Y-6345590D02*
X4542600Y-6355114D01*
X4542600Y-6355114D02*
X4552124Y-6374162D01*
X4552124Y-6374162D02*
X4552124Y-6421781D01*
X4552124Y-6421781D02*
X4542600Y-6440828D01*
X4542600Y-6440828D02*
X4533076Y-6450352D01*
X4533076Y-6450352D02*
X4514029Y-6459876D01*
X4514029Y-6459876D02*
X4466410Y-6459876D01*
X4466410Y-6459876D02*
X4447362Y-6450352D01*
X4447362Y-6450352D02*
X4437838Y-6440828D01*
X4628314Y-6259876D02*
X4628314Y-6297971D01*
X4704505Y-6259876D02*
X4704505Y-6297971D01*
X4967362Y-6536067D02*
X4957838Y-6526543D01*
X4957838Y-6526543D02*
X4938791Y-6497971D01*
X4938791Y-6497971D02*
X4929267Y-6478924D01*
X4929267Y-6478924D02*
X4919743Y-6450352D01*
X4919743Y-6450352D02*
X4910219Y-6402733D01*
X4910219Y-6402733D02*
X4910219Y-6364638D01*
X4910219Y-6364638D02*
X4919743Y-6317019D01*
X4919743Y-6317019D02*
X4929267Y-6288448D01*
X4929267Y-6288448D02*
X4938791Y-6269400D01*
X4938791Y-6269400D02*
X4957838Y-6240828D01*
X4957838Y-6240828D02*
X4967362Y-6231305D01*
X5148314Y-6459876D02*
X5034029Y-6459876D01*
X5091172Y-6459876D02*
X5091172Y-6259876D01*
X5091172Y-6259876D02*
X5072124Y-6288448D01*
X5072124Y-6288448D02*
X5053076Y-6307495D01*
X5053076Y-6307495D02*
X5034029Y-6317019D01*
X5338791Y-6459876D02*
X5224505Y-6459876D01*
X5281648Y-6459876D02*
X5281648Y-6259876D01*
X5281648Y-6259876D02*
X5262600Y-6288448D01*
X5262600Y-6288448D02*
X5243553Y-6307495D01*
X5243553Y-6307495D02*
X5224505Y-6317019D01*
X5414981Y-6278924D02*
X5424505Y-6269400D01*
X5424505Y-6269400D02*
X5443553Y-6259876D01*
X5443553Y-6259876D02*
X5491172Y-6259876D01*
X5491172Y-6259876D02*
X5510219Y-6269400D01*
X5510219Y-6269400D02*
X5519743Y-6278924D01*
X5519743Y-6278924D02*
X5529267Y-6297971D01*
X5529267Y-6297971D02*
X5529267Y-6317019D01*
X5529267Y-6317019D02*
X5519743Y-6345590D01*
X5519743Y-6345590D02*
X5405457Y-6459876D01*
X5405457Y-6459876D02*
X5529267Y-6459876D01*
X5734981Y-6459876D02*
X5734981Y-6259876D01*
X5820695Y-6459876D02*
X5820695Y-6355114D01*
X5820695Y-6355114D02*
X5811172Y-6336067D01*
X5811172Y-6336067D02*
X5792124Y-6326543D01*
X5792124Y-6326543D02*
X5763552Y-6326543D01*
X5763552Y-6326543D02*
X5744505Y-6336067D01*
X5744505Y-6336067D02*
X5734981Y-6345590D01*
X5944505Y-6459876D02*
X5925457Y-6450352D01*
X5925457Y-6450352D02*
X5915933Y-6440828D01*
X5915933Y-6440828D02*
X5906410Y-6421781D01*
X5906410Y-6421781D02*
X5906410Y-6364638D01*
X5906410Y-6364638D02*
X5915933Y-6345590D01*
X5915933Y-6345590D02*
X5925457Y-6336067D01*
X5925457Y-6336067D02*
X5944505Y-6326543D01*
X5944505Y-6326543D02*
X5973076Y-6326543D01*
X5973076Y-6326543D02*
X5992124Y-6336067D01*
X5992124Y-6336067D02*
X6001648Y-6345590D01*
X6001648Y-6345590D02*
X6011172Y-6364638D01*
X6011172Y-6364638D02*
X6011172Y-6421781D01*
X6011172Y-6421781D02*
X6001648Y-6440828D01*
X6001648Y-6440828D02*
X5992124Y-6450352D01*
X5992124Y-6450352D02*
X5973076Y-6459876D01*
X5973076Y-6459876D02*
X5944505Y-6459876D01*
X6125457Y-6459876D02*
X6106410Y-6450352D01*
X6106410Y-6450352D02*
X6096886Y-6431305D01*
X6096886Y-6431305D02*
X6096886Y-6259876D01*
X6277838Y-6450352D02*
X6258791Y-6459876D01*
X6258791Y-6459876D02*
X6220695Y-6459876D01*
X6220695Y-6459876D02*
X6201648Y-6450352D01*
X6201648Y-6450352D02*
X6192124Y-6431305D01*
X6192124Y-6431305D02*
X6192124Y-6355114D01*
X6192124Y-6355114D02*
X6201648Y-6336067D01*
X6201648Y-6336067D02*
X6220695Y-6326543D01*
X6220695Y-6326543D02*
X6258791Y-6326543D01*
X6258791Y-6326543D02*
X6277838Y-6336067D01*
X6277838Y-6336067D02*
X6287362Y-6355114D01*
X6287362Y-6355114D02*
X6287362Y-6374162D01*
X6287362Y-6374162D02*
X6192124Y-6393209D01*
X6363553Y-6450352D02*
X6382600Y-6459876D01*
X6382600Y-6459876D02*
X6420695Y-6459876D01*
X6420695Y-6459876D02*
X6439743Y-6450352D01*
X6439743Y-6450352D02*
X6449267Y-6431305D01*
X6449267Y-6431305D02*
X6449267Y-6421781D01*
X6449267Y-6421781D02*
X6439743Y-6402733D01*
X6439743Y-6402733D02*
X6420695Y-6393209D01*
X6420695Y-6393209D02*
X6392124Y-6393209D01*
X6392124Y-6393209D02*
X6373076Y-6383686D01*
X6373076Y-6383686D02*
X6363553Y-6364638D01*
X6363553Y-6364638D02*
X6363553Y-6355114D01*
X6363553Y-6355114D02*
X6373076Y-6336067D01*
X6373076Y-6336067D02*
X6392124Y-6326543D01*
X6392124Y-6326543D02*
X6420695Y-6326543D01*
X6420695Y-6326543D02*
X6439743Y-6336067D01*
X6515934Y-6536067D02*
X6525457Y-6526543D01*
X6525457Y-6526543D02*
X6544505Y-6497971D01*
X6544505Y-6497971D02*
X6554029Y-6478924D01*
X6554029Y-6478924D02*
X6563553Y-6450352D01*
X6563553Y-6450352D02*
X6573076Y-6402733D01*
X6573076Y-6402733D02*
X6573076Y-6364638D01*
X6573076Y-6364638D02*
X6563553Y-6317019D01*
X6563553Y-6317019D02*
X6554029Y-6288448D01*
X6554029Y-6288448D02*
X6544505Y-6269400D01*
X6544505Y-6269400D02*
X6525457Y-6240828D01*
X6525457Y-6240828D02*
X6515934Y-6231305D01*
D13*
X1457600Y-6605400D02*
X1457600Y-6695400D01*
X1412600Y-6650400D02*
X1502600Y-6650400D01*
D11*
X1788314Y-6523876D02*
X1807362Y-6523876D01*
X1807362Y-6523876D02*
X1826409Y-6533400D01*
X1826409Y-6533400D02*
X1835933Y-6542924D01*
X1835933Y-6542924D02*
X1845457Y-6561971D01*
X1845457Y-6561971D02*
X1854981Y-6600067D01*
X1854981Y-6600067D02*
X1854981Y-6647686D01*
X1854981Y-6647686D02*
X1845457Y-6685781D01*
X1845457Y-6685781D02*
X1835933Y-6704828D01*
X1835933Y-6704828D02*
X1826409Y-6714352D01*
X1826409Y-6714352D02*
X1807362Y-6723876D01*
X1807362Y-6723876D02*
X1788314Y-6723876D01*
X1788314Y-6723876D02*
X1769267Y-6714352D01*
X1769267Y-6714352D02*
X1759743Y-6704828D01*
X1759743Y-6704828D02*
X1750219Y-6685781D01*
X1750219Y-6685781D02*
X1740695Y-6647686D01*
X1740695Y-6647686D02*
X1740695Y-6600067D01*
X1740695Y-6600067D02*
X1750219Y-6561971D01*
X1750219Y-6561971D02*
X1759743Y-6542924D01*
X1759743Y-6542924D02*
X1769267Y-6533400D01*
X1769267Y-6533400D02*
X1788314Y-6523876D01*
X1940695Y-6704828D02*
X1950219Y-6714352D01*
X1950219Y-6714352D02*
X1940695Y-6723876D01*
X1940695Y-6723876D02*
X1931171Y-6714352D01*
X1931171Y-6714352D02*
X1940695Y-6704828D01*
X1940695Y-6704828D02*
X1940695Y-6723876D01*
X2045457Y-6723876D02*
X2083552Y-6723876D01*
X2083552Y-6723876D02*
X2102600Y-6714352D01*
X2102600Y-6714352D02*
X2112124Y-6704828D01*
X2112124Y-6704828D02*
X2131171Y-6676257D01*
X2131171Y-6676257D02*
X2140695Y-6638162D01*
X2140695Y-6638162D02*
X2140695Y-6561971D01*
X2140695Y-6561971D02*
X2131171Y-6542924D01*
X2131171Y-6542924D02*
X2121648Y-6533400D01*
X2121648Y-6533400D02*
X2102600Y-6523876D01*
X2102600Y-6523876D02*
X2064505Y-6523876D01*
X2064505Y-6523876D02*
X2045457Y-6533400D01*
X2045457Y-6533400D02*
X2035933Y-6542924D01*
X2035933Y-6542924D02*
X2026409Y-6561971D01*
X2026409Y-6561971D02*
X2026409Y-6609590D01*
X2026409Y-6609590D02*
X2035933Y-6628638D01*
X2035933Y-6628638D02*
X2045457Y-6638162D01*
X2045457Y-6638162D02*
X2064505Y-6647686D01*
X2064505Y-6647686D02*
X2102600Y-6647686D01*
X2102600Y-6647686D02*
X2121648Y-6638162D01*
X2121648Y-6638162D02*
X2131171Y-6628638D01*
X2131171Y-6628638D02*
X2140695Y-6609590D01*
X2264505Y-6523876D02*
X2283552Y-6523876D01*
X2283552Y-6523876D02*
X2302600Y-6533400D01*
X2302600Y-6533400D02*
X2312124Y-6542924D01*
X2312124Y-6542924D02*
X2321648Y-6561971D01*
X2321648Y-6561971D02*
X2331171Y-6600067D01*
X2331171Y-6600067D02*
X2331171Y-6647686D01*
X2331171Y-6647686D02*
X2321648Y-6685781D01*
X2321648Y-6685781D02*
X2312124Y-6704828D01*
X2312124Y-6704828D02*
X2302600Y-6714352D01*
X2302600Y-6714352D02*
X2283552Y-6723876D01*
X2283552Y-6723876D02*
X2264505Y-6723876D01*
X2264505Y-6723876D02*
X2245457Y-6714352D01*
X2245457Y-6714352D02*
X2235933Y-6704828D01*
X2235933Y-6704828D02*
X2226410Y-6685781D01*
X2226410Y-6685781D02*
X2216886Y-6647686D01*
X2216886Y-6647686D02*
X2216886Y-6600067D01*
X2216886Y-6600067D02*
X2226410Y-6561971D01*
X2226410Y-6561971D02*
X2235933Y-6542924D01*
X2235933Y-6542924D02*
X2245457Y-6533400D01*
X2245457Y-6533400D02*
X2264505Y-6523876D01*
X2454981Y-6523876D02*
X2474029Y-6523876D01*
X2474029Y-6523876D02*
X2493076Y-6533400D01*
X2493076Y-6533400D02*
X2502600Y-6542924D01*
X2502600Y-6542924D02*
X2512124Y-6561971D01*
X2512124Y-6561971D02*
X2521648Y-6600067D01*
X2521648Y-6600067D02*
X2521648Y-6647686D01*
X2521648Y-6647686D02*
X2512124Y-6685781D01*
X2512124Y-6685781D02*
X2502600Y-6704828D01*
X2502600Y-6704828D02*
X2493076Y-6714352D01*
X2493076Y-6714352D02*
X2474029Y-6723876D01*
X2474029Y-6723876D02*
X2454981Y-6723876D01*
X2454981Y-6723876D02*
X2435933Y-6714352D01*
X2435933Y-6714352D02*
X2426410Y-6704828D01*
X2426410Y-6704828D02*
X2416886Y-6685781D01*
X2416886Y-6685781D02*
X2407362Y-6647686D01*
X2407362Y-6647686D02*
X2407362Y-6600067D01*
X2407362Y-6600067D02*
X2416886Y-6561971D01*
X2416886Y-6561971D02*
X2426410Y-6542924D01*
X2426410Y-6542924D02*
X2435933Y-6533400D01*
X2435933Y-6533400D02*
X2454981Y-6523876D01*
X2607362Y-6723876D02*
X2607362Y-6590543D01*
X2607362Y-6609590D02*
X2616886Y-6600067D01*
X2616886Y-6600067D02*
X2635933Y-6590543D01*
X2635933Y-6590543D02*
X2664505Y-6590543D01*
X2664505Y-6590543D02*
X2683552Y-6600067D01*
X2683552Y-6600067D02*
X2693076Y-6619114D01*
X2693076Y-6619114D02*
X2693076Y-6723876D01*
X2693076Y-6619114D02*
X2702600Y-6600067D01*
X2702600Y-6600067D02*
X2721648Y-6590543D01*
X2721648Y-6590543D02*
X2750219Y-6590543D01*
X2750219Y-6590543D02*
X2769267Y-6600067D01*
X2769267Y-6600067D02*
X2778791Y-6619114D01*
X2778791Y-6619114D02*
X2778791Y-6723876D01*
X2874029Y-6723876D02*
X2874029Y-6590543D01*
X2874029Y-6609590D02*
X2883552Y-6600067D01*
X2883552Y-6600067D02*
X2902600Y-6590543D01*
X2902600Y-6590543D02*
X2931171Y-6590543D01*
X2931171Y-6590543D02*
X2950219Y-6600067D01*
X2950219Y-6600067D02*
X2959743Y-6619114D01*
X2959743Y-6619114D02*
X2959743Y-6723876D01*
X2959743Y-6619114D02*
X2969267Y-6600067D01*
X2969267Y-6600067D02*
X2988314Y-6590543D01*
X2988314Y-6590543D02*
X3016886Y-6590543D01*
X3016886Y-6590543D02*
X3035933Y-6600067D01*
X3035933Y-6600067D02*
X3045457Y-6619114D01*
X3045457Y-6619114D02*
X3045457Y-6723876D01*
X3403552Y-6514352D02*
X3232124Y-6771495D01*
X3628314Y-6523876D02*
X3647362Y-6523876D01*
X3647362Y-6523876D02*
X3666410Y-6533400D01*
X3666410Y-6533400D02*
X3675933Y-6542924D01*
X3675933Y-6542924D02*
X3685457Y-6561971D01*
X3685457Y-6561971D02*
X3694981Y-6600067D01*
X3694981Y-6600067D02*
X3694981Y-6647686D01*
X3694981Y-6647686D02*
X3685457Y-6685781D01*
X3685457Y-6685781D02*
X3675933Y-6704828D01*
X3675933Y-6704828D02*
X3666410Y-6714352D01*
X3666410Y-6714352D02*
X3647362Y-6723876D01*
X3647362Y-6723876D02*
X3628314Y-6723876D01*
X3628314Y-6723876D02*
X3609267Y-6714352D01*
X3609267Y-6714352D02*
X3599743Y-6704828D01*
X3599743Y-6704828D02*
X3590219Y-6685781D01*
X3590219Y-6685781D02*
X3580695Y-6647686D01*
X3580695Y-6647686D02*
X3580695Y-6600067D01*
X3580695Y-6600067D02*
X3590219Y-6561971D01*
X3590219Y-6561971D02*
X3599743Y-6542924D01*
X3599743Y-6542924D02*
X3609267Y-6533400D01*
X3609267Y-6533400D02*
X3628314Y-6523876D01*
X3780695Y-6704828D02*
X3790219Y-6714352D01*
X3790219Y-6714352D02*
X3780695Y-6723876D01*
X3780695Y-6723876D02*
X3771171Y-6714352D01*
X3771171Y-6714352D02*
X3780695Y-6704828D01*
X3780695Y-6704828D02*
X3780695Y-6723876D01*
X3914029Y-6523876D02*
X3933076Y-6523876D01*
X3933076Y-6523876D02*
X3952124Y-6533400D01*
X3952124Y-6533400D02*
X3961648Y-6542924D01*
X3961648Y-6542924D02*
X3971171Y-6561971D01*
X3971171Y-6561971D02*
X3980695Y-6600067D01*
X3980695Y-6600067D02*
X3980695Y-6647686D01*
X3980695Y-6647686D02*
X3971171Y-6685781D01*
X3971171Y-6685781D02*
X3961648Y-6704828D01*
X3961648Y-6704828D02*
X3952124Y-6714352D01*
X3952124Y-6714352D02*
X3933076Y-6723876D01*
X3933076Y-6723876D02*
X3914029Y-6723876D01*
X3914029Y-6723876D02*
X3894981Y-6714352D01*
X3894981Y-6714352D02*
X3885457Y-6704828D01*
X3885457Y-6704828D02*
X3875933Y-6685781D01*
X3875933Y-6685781D02*
X3866410Y-6647686D01*
X3866410Y-6647686D02*
X3866410Y-6600067D01*
X3866410Y-6600067D02*
X3875933Y-6561971D01*
X3875933Y-6561971D02*
X3885457Y-6542924D01*
X3885457Y-6542924D02*
X3894981Y-6533400D01*
X3894981Y-6533400D02*
X3914029Y-6523876D01*
X4047362Y-6523876D02*
X4171171Y-6523876D01*
X4171171Y-6523876D02*
X4104505Y-6600067D01*
X4104505Y-6600067D02*
X4133076Y-6600067D01*
X4133076Y-6600067D02*
X4152124Y-6609590D01*
X4152124Y-6609590D02*
X4161648Y-6619114D01*
X4161648Y-6619114D02*
X4171171Y-6638162D01*
X4171171Y-6638162D02*
X4171171Y-6685781D01*
X4171171Y-6685781D02*
X4161648Y-6704828D01*
X4161648Y-6704828D02*
X4152124Y-6714352D01*
X4152124Y-6714352D02*
X4133076Y-6723876D01*
X4133076Y-6723876D02*
X4075933Y-6723876D01*
X4075933Y-6723876D02*
X4056886Y-6714352D01*
X4056886Y-6714352D02*
X4047362Y-6704828D01*
X4352124Y-6523876D02*
X4256886Y-6523876D01*
X4256886Y-6523876D02*
X4247362Y-6619114D01*
X4247362Y-6619114D02*
X4256886Y-6609590D01*
X4256886Y-6609590D02*
X4275933Y-6600067D01*
X4275933Y-6600067D02*
X4323553Y-6600067D01*
X4323553Y-6600067D02*
X4342600Y-6609590D01*
X4342600Y-6609590D02*
X4352124Y-6619114D01*
X4352124Y-6619114D02*
X4361648Y-6638162D01*
X4361648Y-6638162D02*
X4361648Y-6685781D01*
X4361648Y-6685781D02*
X4352124Y-6704828D01*
X4352124Y-6704828D02*
X4342600Y-6714352D01*
X4342600Y-6714352D02*
X4323553Y-6723876D01*
X4323553Y-6723876D02*
X4275933Y-6723876D01*
X4275933Y-6723876D02*
X4256886Y-6714352D01*
X4256886Y-6714352D02*
X4247362Y-6704828D01*
X4533076Y-6590543D02*
X4533076Y-6723876D01*
X4485457Y-6514352D02*
X4437838Y-6657209D01*
X4437838Y-6657209D02*
X4561648Y-6657209D01*
X4628314Y-6523876D02*
X4628314Y-6561971D01*
X4704505Y-6523876D02*
X4704505Y-6561971D01*
X4967362Y-6800067D02*
X4957838Y-6790543D01*
X4957838Y-6790543D02*
X4938791Y-6761971D01*
X4938791Y-6761971D02*
X4929267Y-6742924D01*
X4929267Y-6742924D02*
X4919743Y-6714352D01*
X4919743Y-6714352D02*
X4910219Y-6666733D01*
X4910219Y-6666733D02*
X4910219Y-6628638D01*
X4910219Y-6628638D02*
X4919743Y-6581019D01*
X4919743Y-6581019D02*
X4929267Y-6552448D01*
X4929267Y-6552448D02*
X4938791Y-6533400D01*
X4938791Y-6533400D02*
X4957838Y-6504828D01*
X4957838Y-6504828D02*
X4967362Y-6495305D01*
X5129267Y-6590543D02*
X5129267Y-6723876D01*
X5081648Y-6514352D02*
X5034029Y-6657209D01*
X5034029Y-6657209D02*
X5157838Y-6657209D01*
X5354029Y-6723876D02*
X5354029Y-6523876D01*
X5439743Y-6723876D02*
X5439743Y-6619114D01*
X5439743Y-6619114D02*
X5430219Y-6600067D01*
X5430219Y-6600067D02*
X5411172Y-6590543D01*
X5411172Y-6590543D02*
X5382600Y-6590543D01*
X5382600Y-6590543D02*
X5363553Y-6600067D01*
X5363553Y-6600067D02*
X5354029Y-6609590D01*
X5563553Y-6723876D02*
X5544505Y-6714352D01*
X5544505Y-6714352D02*
X5534981Y-6704828D01*
X5534981Y-6704828D02*
X5525457Y-6685781D01*
X5525457Y-6685781D02*
X5525457Y-6628638D01*
X5525457Y-6628638D02*
X5534981Y-6609590D01*
X5534981Y-6609590D02*
X5544505Y-6600067D01*
X5544505Y-6600067D02*
X5563553Y-6590543D01*
X5563553Y-6590543D02*
X5592124Y-6590543D01*
X5592124Y-6590543D02*
X5611172Y-6600067D01*
X5611172Y-6600067D02*
X5620695Y-6609590D01*
X5620695Y-6609590D02*
X5630219Y-6628638D01*
X5630219Y-6628638D02*
X5630219Y-6685781D01*
X5630219Y-6685781D02*
X5620695Y-6704828D01*
X5620695Y-6704828D02*
X5611172Y-6714352D01*
X5611172Y-6714352D02*
X5592124Y-6723876D01*
X5592124Y-6723876D02*
X5563553Y-6723876D01*
X5744505Y-6723876D02*
X5725457Y-6714352D01*
X5725457Y-6714352D02*
X5715933Y-6695305D01*
X5715933Y-6695305D02*
X5715933Y-6523876D01*
X5896886Y-6714352D02*
X5877838Y-6723876D01*
X5877838Y-6723876D02*
X5839743Y-6723876D01*
X5839743Y-6723876D02*
X5820695Y-6714352D01*
X5820695Y-6714352D02*
X5811172Y-6695305D01*
X5811172Y-6695305D02*
X5811172Y-6619114D01*
X5811172Y-6619114D02*
X5820695Y-6600067D01*
X5820695Y-6600067D02*
X5839743Y-6590543D01*
X5839743Y-6590543D02*
X5877838Y-6590543D01*
X5877838Y-6590543D02*
X5896886Y-6600067D01*
X5896886Y-6600067D02*
X5906410Y-6619114D01*
X5906410Y-6619114D02*
X5906410Y-6638162D01*
X5906410Y-6638162D02*
X5811172Y-6657209D01*
X5982600Y-6714352D02*
X6001648Y-6723876D01*
X6001648Y-6723876D02*
X6039743Y-6723876D01*
X6039743Y-6723876D02*
X6058791Y-6714352D01*
X6058791Y-6714352D02*
X6068314Y-6695305D01*
X6068314Y-6695305D02*
X6068314Y-6685781D01*
X6068314Y-6685781D02*
X6058791Y-6666733D01*
X6058791Y-6666733D02*
X6039743Y-6657209D01*
X6039743Y-6657209D02*
X6011172Y-6657209D01*
X6011172Y-6657209D02*
X5992124Y-6647686D01*
X5992124Y-6647686D02*
X5982600Y-6628638D01*
X5982600Y-6628638D02*
X5982600Y-6619114D01*
X5982600Y-6619114D02*
X5992124Y-6600067D01*
X5992124Y-6600067D02*
X6011172Y-6590543D01*
X6011172Y-6590543D02*
X6039743Y-6590543D01*
X6039743Y-6590543D02*
X6058791Y-6600067D01*
X6134981Y-6800067D02*
X6144505Y-6790543D01*
X6144505Y-6790543D02*
X6163553Y-6761971D01*
X6163553Y-6761971D02*
X6173076Y-6742924D01*
X6173076Y-6742924D02*
X6182600Y-6714352D01*
X6182600Y-6714352D02*
X6192124Y-6666733D01*
X6192124Y-6666733D02*
X6192124Y-6628638D01*
X6192124Y-6628638D02*
X6182600Y-6581019D01*
X6182600Y-6581019D02*
X6173076Y-6552448D01*
X6173076Y-6552448D02*
X6163553Y-6533400D01*
X6163553Y-6533400D02*
X6144505Y-6504828D01*
X6144505Y-6504828D02*
X6134981Y-6495305D01*
M02*
