%TF.GenerationSoftware,KiCad,Pcbnew,(7.0.0)*%
%TF.CreationDate,2024-03-31T01:55:41+08:00*%
%TF.ProjectId,__,42182e6b-6963-4616-945f-706362585858,rev?*%
%TF.SameCoordinates,Original*%
%TF.FileFunction,Copper,L1,Top*%
%TF.FilePolarity,Positive*%
%FSLAX46Y46*%
G04 Gerber Fmt 4.6, Leading zero omitted, Abs format (unit mm)*
G04 Created by KiCad (PCBNEW (7.0.0)) date 2024-03-31 01:55:41*
%MOMM*%
%LPD*%
G01*
G04 APERTURE LIST*
%TA.AperFunction,ComponentPad*%
%ADD10O,2.000000X1.200000*%
%TD*%
%TA.AperFunction,ComponentPad*%
%ADD11C,1.800000*%
%TD*%
%TA.AperFunction,ComponentPad*%
%ADD12R,1.800000X1.800000*%
%TD*%
%TA.AperFunction,ComponentPad*%
%ADD13O,1.600000X1.600000*%
%TD*%
%TA.AperFunction,ComponentPad*%
%ADD14C,1.600000*%
%TD*%
%TA.AperFunction,ComponentPad*%
%ADD15R,1.600000X1.600000*%
%TD*%
%TA.AperFunction,ComponentPad*%
%ADD16O,1.200000X2.000000*%
%TD*%
%TA.AperFunction,ViaPad*%
%ADD17C,1.500000*%
%TD*%
%TA.AperFunction,Conductor*%
%ADD18C,1.000000*%
%TD*%
%TA.AperFunction,Conductor*%
%ADD19C,0.250000*%
%TD*%
%TA.AperFunction,Conductor*%
%ADD20C,0.700000*%
%TD*%
G04 APERTURE END LIST*
D10*
%TO.P,Led1,8,com*%
%TO.N,Net-(Led1-com)*%
X18541999Y-22097999D03*
%TO.P,Led1,7,g*%
%TO.N,Net-(Led1-g)*%
X18541999Y-24637999D03*
%TO.P,Led1,6,f*%
%TO.N,Net-(Led1-f)*%
X18541999Y-27177999D03*
%TO.P,Led1,5,e*%
%TO.N,Net-(Led1-e)*%
X18541999Y-29717999D03*
%TO.P,Led1,4,d*%
%TO.N,Net-(Led1-d)*%
X18541999Y-32257999D03*
%TO.P,Led1,3,c*%
%TO.N,Net-(Led1-c)*%
X18541999Y-34797999D03*
%TO.P,Led1,2,b*%
%TO.N,Net-(Led1-b)*%
X18541999Y-37337999D03*
%TO.P,Led1,1,a*%
%TO.N,Net-(Led1-a)*%
X18541999Y-39877999D03*
%TD*%
%TO.P,Led2,8,com*%
%TO.N,Net-(Led2-com)*%
X22097999Y-22097999D03*
%TO.P,Led2,7,g*%
%TO.N,Net-(Led1-g)*%
X22097999Y-24637999D03*
%TO.P,Led2,6,f*%
%TO.N,Net-(Led1-f)*%
X22097999Y-27177999D03*
%TO.P,Led2,5,e*%
%TO.N,Net-(Led1-e)*%
X22097999Y-29717999D03*
%TO.P,Led2,4,d*%
%TO.N,Net-(Led1-d)*%
X22097999Y-32257999D03*
%TO.P,Led2,3,c*%
%TO.N,Net-(Led1-c)*%
X22097999Y-34797999D03*
%TO.P,Led2,2,b*%
%TO.N,Net-(Led1-b)*%
X22097999Y-37337999D03*
%TO.P,Led2,1,a*%
%TO.N,Net-(Led1-a)*%
X22097999Y-39877999D03*
%TD*%
D11*
%TO.P,D2,2,A*%
%TO.N,Net-(D1-A)*%
X28091000Y-53106000D03*
D12*
%TO.P,D2,1,K*%
%TO.N,Net-(D1-K)*%
X28090999Y-50565999D03*
%TD*%
D13*
%TO.P,R6,2*%
%TO.N,Net-(Led1-e)*%
X33273999Y-29717999D03*
D14*
%TO.P,R6,1*%
%TO.N,Net-(U3-e)*%
X45974000Y-29718000D03*
%TD*%
D13*
%TO.P,R3,2*%
%TO.N,Net-(Led1-b)*%
X33273999Y-42671999D03*
D14*
%TO.P,R3,1*%
%TO.N,Net-(U3-b)*%
X45974000Y-42672000D03*
%TD*%
D13*
%TO.P,U2,16,VCC*%
%TO.N,+3.3V*%
X90154999Y-25663999D03*
%TO.P,U2,15,O0*%
%TO.N,Net-(U2-O0)*%
X87614999Y-25663999D03*
%TO.P,U2,14,O1*%
%TO.N,Net-(U2-O1)*%
X85074999Y-25663999D03*
%TO.P,U2,13,O2*%
%TO.N,Net-(U2-O2)*%
X82534999Y-25663999D03*
%TO.P,U2,12,O3*%
%TO.N,Net-(U2-O3)*%
X79994999Y-25663999D03*
%TO.P,U2,11,O4*%
%TO.N,unconnected-(U2-O4-Pad11)*%
X77454999Y-25663999D03*
%TO.P,U2,10,O5*%
%TO.N,unconnected-(U2-O5-Pad10)*%
X74914999Y-25663999D03*
%TO.P,U2,9,O6*%
%TO.N,unconnected-(U2-O6-Pad9)*%
X72374999Y-25663999D03*
%TO.P,U2,8,GND*%
%TO.N,GND*%
X72374999Y-18043999D03*
%TO.P,U2,7,O7*%
%TO.N,unconnected-(U2-O7-Pad7)*%
X74914999Y-18043999D03*
%TO.P,U2,6,E3*%
%TO.N,+3.3V*%
X77454999Y-18043999D03*
%TO.P,U2,5,E2*%
%TO.N,GND*%
X79994999Y-18043999D03*
%TO.P,U2,4,E1*%
X82534999Y-18043999D03*
%TO.P,U2,3,A2*%
%TO.N,Net-(ESP01M1-D4)*%
X85074999Y-18043999D03*
%TO.P,U2,2,A1*%
%TO.N,Net-(ESP01M1-D3)*%
X87614999Y-18043999D03*
D15*
%TO.P,U2,1,A0*%
%TO.N,Net-(ESP01M1-D2)*%
X90154999Y-18043999D03*
%TD*%
D13*
%TO.P,R5,2*%
%TO.N,Net-(Led1-d)*%
X33273999Y-34035999D03*
D14*
%TO.P,R5,1*%
%TO.N,Net-(U3-d)*%
X45974000Y-34036000D03*
%TD*%
D16*
%TO.P,ESP01M1,18,D10*%
%TO.N,unconnected-(ESP01M1-D10-Pad18)*%
X72897999Y-31241999D03*
%TO.P,ESP01M1,17,RST*%
%TO.N,unconnected-(ESP01M1-RST-Pad17)*%
X75437999Y-31241999D03*
%TO.P,ESP01M1,16,A0*%
%TO.N,unconnected-(ESP01M1-A0-Pad16)*%
X77977999Y-31241999D03*
%TO.P,ESP01M1,15,D0*%
%TO.N,Net-(D1-K)*%
X80517999Y-31241999D03*
%TO.P,ESP01M1,14,D5*%
%TO.N,Net-(ESP01M1-D5)*%
X83057999Y-31241999D03*
%TO.P,ESP01M1,13,D6*%
%TO.N,Net-(ESP01M1-D6)*%
X85597999Y-31241999D03*
%TO.P,ESP01M1,12,D7*%
%TO.N,Net-(ESP01M1-D7)*%
X88137999Y-31241999D03*
%TO.P,ESP01M1,11,D8*%
%TO.N,Net-(ESP01M1-D8)*%
X90677999Y-31241999D03*
%TO.P,ESP01M1,10,3.3V*%
%TO.N,+3.3V*%
X93217999Y-31241999D03*
%TO.P,ESP01M1,9,5V*%
%TO.N,unconnected-(ESP01M1-5V-Pad9)*%
X93217999Y-49241999D03*
%TO.P,ESP01M1,8,GND*%
%TO.N,GND*%
X90677999Y-49241999D03*
%TO.P,ESP01M1,7,D4*%
%TO.N,Net-(ESP01M1-D4)*%
X88137999Y-49241999D03*
%TO.P,ESP01M1,6,D3*%
%TO.N,Net-(ESP01M1-D3)*%
X85597999Y-49241999D03*
%TO.P,ESP01M1,5,D2*%
%TO.N,Net-(ESP01M1-D2)*%
X83057999Y-49241999D03*
%TO.P,ESP01M1,4,D1*%
%TO.N,unconnected-(ESP01M1-D1-Pad4)*%
X80517999Y-49241999D03*
%TO.P,ESP01M1,3,RX*%
%TO.N,unconnected-(ESP01M1-RX-Pad3)*%
X77977999Y-49241999D03*
%TO.P,ESP01M1,2,TX*%
%TO.N,unconnected-(ESP01M1-TX-Pad2)*%
X75437999Y-49241999D03*
%TO.P,ESP01M1,1,D9*%
%TO.N,unconnected-(ESP01M1-D9-Pad1)*%
X72897999Y-49241999D03*
%TD*%
D13*
%TO.P,R2,2*%
%TO.N,Net-(Led1-a)*%
X33273999Y-46989999D03*
D14*
%TO.P,R2,1*%
%TO.N,Net-(U3-a)*%
X45974000Y-46990000D03*
%TD*%
D13*
%TO.P,R4,2*%
%TO.N,Net-(Led1-c)*%
X33273999Y-38353999D03*
D14*
%TO.P,R4,1*%
%TO.N,Net-(U3-c)*%
X45974000Y-38354000D03*
%TD*%
D13*
%TO.P,U3,16,VCC*%
%TO.N,+3.3V*%
X51297999Y-47482999D03*
%TO.P,U3,15,f*%
%TO.N,Net-(U3-f)*%
X51297999Y-44942999D03*
%TO.P,U3,14,g*%
%TO.N,Net-(U3-g)*%
X51297999Y-42402999D03*
%TO.P,U3,13,a*%
%TO.N,Net-(U3-a)*%
X51297999Y-39862999D03*
%TO.P,U3,12,b*%
%TO.N,Net-(U3-b)*%
X51297999Y-37322999D03*
%TO.P,U3,11,c*%
%TO.N,Net-(U3-c)*%
X51297999Y-34782999D03*
%TO.P,U3,10,d*%
%TO.N,Net-(U3-d)*%
X51297999Y-32242999D03*
%TO.P,U3,9,e*%
%TO.N,Net-(U3-e)*%
X51297999Y-29702999D03*
%TO.P,U3,8,GND*%
%TO.N,GND*%
X58917999Y-29702999D03*
%TO.P,U3,7,A*%
%TO.N,Net-(ESP01M1-D8)*%
X58917999Y-32242999D03*
%TO.P,U3,6,D*%
%TO.N,Net-(ESP01M1-D5)*%
X58917999Y-34782999D03*
%TO.P,U3,5,RBI*%
%TO.N,unconnected-(U3-RBI-Pad5)*%
X58917999Y-37322999D03*
%TO.P,U3,4,BI*%
%TO.N,unconnected-(U3-BI-Pad4)*%
X58917999Y-39862999D03*
%TO.P,U3,3,LT*%
%TO.N,+3.3V*%
X58917999Y-42402999D03*
%TO.P,U3,2,C*%
%TO.N,Net-(ESP01M1-D6)*%
X58917999Y-44942999D03*
D15*
%TO.P,U3,1,B*%
%TO.N,Net-(ESP01M1-D7)*%
X58917999Y-47482999D03*
%TD*%
D13*
%TO.P,U1,14,VCC*%
%TO.N,+3.3V*%
X66547999Y-25663999D03*
%TO.P,U1,13*%
%TO.N,Net-(U2-O3)*%
X64007999Y-25663999D03*
%TO.P,U1,12*%
%TO.N,Net-(Led4-com)*%
X61467999Y-25663999D03*
%TO.P,U1,11*%
%TO.N,N/C*%
X58927999Y-25663999D03*
%TO.P,U1,10*%
X56387999Y-25663999D03*
%TO.P,U1,9*%
X53847999Y-25663999D03*
%TO.P,U1,8*%
X51307999Y-25663999D03*
%TO.P,U1,7,GND*%
%TO.N,GND*%
X51307999Y-18043999D03*
%TO.P,U1,6*%
%TO.N,Net-(Led3-com)*%
X53847999Y-18043999D03*
%TO.P,U1,5*%
%TO.N,Net-(U2-O2)*%
X56387999Y-18043999D03*
%TO.P,U1,4*%
%TO.N,Net-(Led2-com)*%
X58927999Y-18043999D03*
%TO.P,U1,3*%
%TO.N,Net-(U2-O1)*%
X61467999Y-18043999D03*
%TO.P,U1,2*%
%TO.N,Net-(Led1-com)*%
X64007999Y-18043999D03*
D15*
%TO.P,U1,1*%
%TO.N,Net-(U2-O0)*%
X66547999Y-18043999D03*
%TD*%
D11*
%TO.P,D1,2,A*%
%TO.N,Net-(D1-A)*%
X20725000Y-53106000D03*
D12*
%TO.P,D1,1,K*%
%TO.N,Net-(D1-K)*%
X20724999Y-50565999D03*
%TD*%
D13*
%TO.P,R8,2*%
%TO.N,Net-(Led1-g)*%
X33273999Y-21843999D03*
D14*
%TO.P,R8,1*%
%TO.N,Net-(U3-g)*%
X45974000Y-21844000D03*
%TD*%
D13*
%TO.P,R7,2*%
%TO.N,Net-(Led1-f)*%
X33273999Y-25653999D03*
D14*
%TO.P,R7,1*%
%TO.N,Net-(U3-f)*%
X45974000Y-25654000D03*
%TD*%
D10*
%TO.P,Led3,8,com*%
%TO.N,Net-(Led3-com)*%
X25653999Y-22097999D03*
%TO.P,Led3,7,g*%
%TO.N,Net-(Led1-g)*%
X25653999Y-24637999D03*
%TO.P,Led3,6,f*%
%TO.N,Net-(Led1-f)*%
X25653999Y-27177999D03*
%TO.P,Led3,5,e*%
%TO.N,Net-(Led1-e)*%
X25653999Y-29717999D03*
%TO.P,Led3,4,d*%
%TO.N,Net-(Led1-d)*%
X25653999Y-32257999D03*
%TO.P,Led3,3,c*%
%TO.N,Net-(Led1-c)*%
X25653999Y-34797999D03*
%TO.P,Led3,2,b*%
%TO.N,Net-(Led1-b)*%
X25653999Y-37337999D03*
%TO.P,Led3,1,a*%
%TO.N,Net-(Led1-a)*%
X25653999Y-39877999D03*
%TD*%
D13*
%TO.P,R1,2*%
%TO.N,Net-(D1-A)*%
X33273999Y-51307999D03*
D14*
%TO.P,R1,1*%
%TO.N,+3.3V*%
X45974000Y-51308000D03*
%TD*%
D10*
%TO.P,Led4,8,com*%
%TO.N,Net-(Led4-com)*%
X29209999Y-22097999D03*
%TO.P,Led4,7,g*%
%TO.N,Net-(Led1-g)*%
X29209999Y-24637999D03*
%TO.P,Led4,6,f*%
%TO.N,Net-(Led1-f)*%
X29209999Y-27177999D03*
%TO.P,Led4,5,e*%
%TO.N,Net-(Led1-e)*%
X29209999Y-29717999D03*
%TO.P,Led4,4,d*%
%TO.N,Net-(Led1-d)*%
X29209999Y-32257999D03*
%TO.P,Led4,3,c*%
%TO.N,Net-(Led1-c)*%
X29209999Y-34797999D03*
%TO.P,Led4,2,b*%
%TO.N,Net-(Led1-b)*%
X29209999Y-37337999D03*
%TO.P,Led4,1,a*%
%TO.N,Net-(Led1-a)*%
X29209999Y-39877999D03*
%TD*%
D17*
%TO.N,Net-(D1-K)*%
X64770000Y-41910000D03*
X64770000Y-49022000D03*
%TD*%
D18*
%TO.N,Net-(Led1-a)*%
X18542000Y-39878000D02*
X29210000Y-39878000D01*
X29210000Y-42926000D02*
X33274000Y-46990000D01*
X29210000Y-39878000D02*
X29210000Y-42926000D01*
%TO.N,Net-(Led1-b)*%
X18542000Y-37338000D02*
X29210000Y-37338000D01*
D19*
X29210000Y-37338000D02*
X30226000Y-37338000D01*
D18*
X31242000Y-41910000D02*
X32004000Y-42672000D01*
X32004000Y-42672000D02*
X33274000Y-42672000D01*
X30226000Y-37338000D02*
X31242000Y-38354000D01*
X31242000Y-38354000D02*
X31242000Y-41910000D01*
%TO.N,Net-(Led1-c)*%
X30734000Y-34798000D02*
X33274000Y-37338000D01*
X18542000Y-34798000D02*
X30734000Y-34798000D01*
X33274000Y-37338000D02*
X33274000Y-38354000D01*
%TO.N,Net-(Led1-d)*%
X18542000Y-32258000D02*
X31496000Y-32258000D01*
X31496000Y-32258000D02*
X33274000Y-34036000D01*
%TO.N,Net-(Led1-e)*%
X18542000Y-29718000D02*
X33274000Y-29718000D01*
%TO.N,Net-(Led1-f)*%
X18542000Y-27178000D02*
X29210000Y-27178000D01*
X31750000Y-27178000D02*
X33274000Y-25654000D01*
X29210000Y-27178000D02*
X31750000Y-27178000D01*
%TO.N,Net-(Led1-g)*%
X29210000Y-24638000D02*
X30480000Y-24638000D01*
X18542000Y-24638000D02*
X29210000Y-24638000D01*
X30480000Y-24638000D02*
X33274000Y-21844000D01*
%TO.N,Net-(Led1-com)*%
X27178000Y-13462000D02*
X61722000Y-13462000D01*
X64013000Y-15753000D02*
X64013000Y-18044000D01*
X18542000Y-22098000D02*
X27178000Y-13462000D01*
X61722000Y-13462000D02*
X64013000Y-15753000D01*
%TO.N,Net-(Led2-com)*%
X22098000Y-22098000D02*
X29313132Y-14882868D01*
X58933000Y-17023000D02*
X58933000Y-18044000D01*
X29313132Y-14882868D02*
X56792868Y-14882868D01*
X56792868Y-14882868D02*
X58933000Y-17023000D01*
%TO.N,Net-(Led3-com)*%
X53853000Y-17023000D02*
X53853000Y-18044000D01*
X53167547Y-16337547D02*
X53853000Y-17023000D01*
X31414453Y-16337547D02*
X53167547Y-16337547D01*
X25654000Y-22098000D02*
X31414453Y-16337547D01*
%TO.N,Net-(Led4-com)*%
X60198000Y-23114000D02*
X61473000Y-24389000D01*
X61473000Y-24389000D02*
X61473000Y-25664000D01*
X29210000Y-22098000D02*
X31496000Y-19812000D01*
X46990000Y-19812000D02*
X50292000Y-23114000D01*
X31496000Y-19812000D02*
X46990000Y-19812000D01*
X50292000Y-23114000D02*
X60198000Y-23114000D01*
%TO.N,Net-(D1-A)*%
X20725000Y-53106000D02*
X28091000Y-53106000D01*
X28091000Y-53106000D02*
X31476000Y-53106000D01*
X31476000Y-53106000D02*
X33274000Y-51308000D01*
%TO.N,Net-(U3-a)*%
X51298000Y-39863000D02*
X51298000Y-39875500D01*
D20*
X45974000Y-45199500D02*
X45974000Y-46990000D01*
X51298000Y-39875500D02*
X45974000Y-45199500D01*
D18*
%TO.N,Net-(U3-b)*%
X45974000Y-42672000D02*
X45974000Y-41910000D01*
X45974000Y-41910000D02*
X50536000Y-37348000D01*
X50536000Y-37348000D02*
X51298000Y-37348000D01*
D19*
X51298000Y-37348000D02*
X51298000Y-37323000D01*
D18*
%TO.N,Net-(U3-c)*%
X46482000Y-38354000D02*
X50053000Y-34783000D01*
X45974000Y-38354000D02*
X46482000Y-38354000D01*
X50053000Y-34783000D02*
X51298000Y-34783000D01*
%TO.N,Net-(U3-d)*%
X49291000Y-32243000D02*
X51298000Y-32243000D01*
X45974000Y-34036000D02*
X47498000Y-34036000D01*
X47498000Y-34036000D02*
X49291000Y-32243000D01*
D19*
%TO.N,Net-(U3-e)*%
X51283000Y-29718000D02*
X51298000Y-29703000D01*
D18*
X45974000Y-29718000D02*
X51283000Y-29718000D01*
%TO.N,Net-(U3-f)*%
X52468997Y-27541003D02*
X47861003Y-27541003D01*
X52468997Y-27541003D02*
X54102000Y-29174005D01*
X54102000Y-29174005D02*
X54102000Y-43434000D01*
X54102000Y-43434000D02*
X52593000Y-44943000D01*
X52593000Y-44943000D02*
X51298000Y-44943000D01*
X47861003Y-27541003D02*
X45974000Y-25654000D01*
%TO.N,Net-(U3-g)*%
X50802500Y-42403000D02*
X51298000Y-42403000D01*
X42926000Y-23622000D02*
X42926000Y-47498000D01*
X42926000Y-47498000D02*
X44610352Y-49182352D01*
X49022000Y-47117000D02*
X49022000Y-44183500D01*
X44704000Y-21844000D02*
X42926000Y-23622000D01*
X45974000Y-21844000D02*
X44704000Y-21844000D01*
X46956648Y-49182352D02*
X49022000Y-47117000D01*
X49022000Y-44183500D02*
X50802500Y-42403000D01*
X44610352Y-49182352D02*
X46956648Y-49182352D01*
%TO.N,Net-(ESP01M1-D2)*%
X85262000Y-53512000D02*
X96094000Y-53512000D01*
X98806000Y-50800000D02*
X98806000Y-20574000D01*
X83058000Y-49242000D02*
X83058000Y-51308000D01*
X96094000Y-53512000D02*
X98806000Y-50800000D01*
X98806000Y-20574000D02*
X96276000Y-18044000D01*
X83058000Y-51308000D02*
X85262000Y-53512000D01*
X96276000Y-18044000D02*
X90155000Y-18044000D01*
%TO.N,Net-(ESP01M1-D3)*%
X86868000Y-52070000D02*
X94488000Y-52070000D01*
X85598000Y-49242000D02*
X85598000Y-50800000D01*
X87615000Y-19289000D02*
X87615000Y-18044000D01*
X88392000Y-20066000D02*
X87615000Y-19289000D01*
X94488000Y-52070000D02*
X97028000Y-49530000D01*
X97028000Y-23114000D02*
X93980000Y-20066000D01*
X97028000Y-49530000D02*
X97028000Y-23114000D01*
X85598000Y-50800000D02*
X86868000Y-52070000D01*
X93980000Y-20066000D02*
X88392000Y-20066000D01*
%TO.N,Net-(ESP01M1-D4)*%
X86106000Y-20828000D02*
X87376000Y-20828000D01*
X92710000Y-23114000D02*
X95250000Y-25654000D01*
X89662000Y-23114000D02*
X92710000Y-23114000D01*
X85075000Y-19797000D02*
X86106000Y-20828000D01*
X88138000Y-43434000D02*
X88138000Y-49242000D01*
X85075000Y-18044000D02*
X85075000Y-19797000D01*
X87376000Y-20828000D02*
X89662000Y-23114000D01*
X95250000Y-25654000D02*
X95250000Y-36322000D01*
X95250000Y-36322000D02*
X88138000Y-43434000D01*
D20*
%TO.N,Net-(U2-O3)*%
X65215000Y-23685000D02*
X79057000Y-23685000D01*
X64008000Y-24892000D02*
X65215000Y-23685000D01*
X79995000Y-24623000D02*
X79995000Y-25664000D01*
X64008000Y-25664000D02*
X64008000Y-24892000D01*
X79057000Y-23685000D02*
X79995000Y-24623000D01*
%TO.N,Net-(U2-O2)*%
X56388000Y-19304000D02*
X57658000Y-20574000D01*
X62484000Y-22606000D02*
X81534000Y-22606000D01*
X81534000Y-22606000D02*
X82535000Y-23607000D01*
X56388000Y-18044000D02*
X56388000Y-19304000D01*
X57658000Y-20574000D02*
X60452000Y-20574000D01*
X60452000Y-20574000D02*
X62484000Y-22606000D01*
X82535000Y-23607000D02*
X82535000Y-25664000D01*
%TO.N,Net-(U2-O1)*%
X61468000Y-18044000D02*
X61468000Y-18796000D01*
X82550000Y-21336000D02*
X85075000Y-23861000D01*
X85075000Y-23861000D02*
X85075000Y-25664000D01*
X64008000Y-21336000D02*
X82550000Y-21336000D01*
X61468000Y-18796000D02*
X64008000Y-21336000D01*
D18*
%TO.N,Net-(U2-O0)*%
X83312000Y-20066000D02*
X85598000Y-22352000D01*
X86614000Y-22352000D02*
X87615000Y-23353000D01*
X68590000Y-18044000D02*
X70612000Y-20066000D01*
X87615000Y-23353000D02*
X87615000Y-25664000D01*
X66548000Y-18044000D02*
X68590000Y-18044000D01*
X70612000Y-20066000D02*
X83312000Y-20066000D01*
X85598000Y-22352000D02*
X86614000Y-22352000D01*
%TO.N,Net-(ESP01M1-D7)*%
X88138000Y-37846000D02*
X79756000Y-46228000D01*
X88138000Y-31242000D02*
X88138000Y-37846000D01*
X70627000Y-47483000D02*
X58918000Y-47483000D01*
X79756000Y-46228000D02*
X71882000Y-46228000D01*
X71882000Y-46228000D02*
X70627000Y-47483000D01*
%TO.N,Net-(ESP01M1-D6)*%
X77216000Y-43942000D02*
X70104000Y-43942000D01*
X69103000Y-44943000D02*
X58918000Y-44943000D01*
X85598000Y-35560000D02*
X77216000Y-43942000D01*
X70104000Y-43942000D02*
X69103000Y-44943000D01*
X85598000Y-31242000D02*
X85598000Y-35560000D01*
%TO.N,Net-(ESP01M1-D5)*%
X70104000Y-33020000D02*
X70104000Y-30226000D01*
X71120000Y-29210000D02*
X82296000Y-29210000D01*
X58918000Y-34783000D02*
X68341000Y-34783000D01*
X83058000Y-29972000D02*
X83058000Y-31242000D01*
X68341000Y-34783000D02*
X70104000Y-33020000D01*
X70104000Y-30226000D02*
X71120000Y-29210000D01*
D19*
X83058000Y-30480000D02*
X83058000Y-31242000D01*
D18*
X82296000Y-29210000D02*
X83058000Y-29972000D01*
%TO.N,Net-(ESP01M1-D8)*%
X89154000Y-27686000D02*
X90678000Y-29210000D01*
X58918000Y-32243000D02*
X66309000Y-32243000D01*
X67818000Y-28702000D02*
X68834000Y-27686000D01*
X68834000Y-27686000D02*
X89154000Y-27686000D01*
X66309000Y-32243000D02*
X67818000Y-30734000D01*
X67818000Y-30734000D02*
X67818000Y-28702000D01*
X90678000Y-29210000D02*
X90678000Y-31242000D01*
%TO.N,Net-(D1-K)*%
X76200000Y-41910000D02*
X80518000Y-37592000D01*
X64770000Y-49022000D02*
X64770000Y-50796280D01*
X64770000Y-50796280D02*
X62226280Y-53340000D01*
X29127000Y-49530000D02*
X28091000Y-50566000D01*
X64770000Y-41910000D02*
X76200000Y-41910000D01*
X39624000Y-53340000D02*
X35814000Y-49530000D01*
X80518000Y-37592000D02*
X80518000Y-31242000D01*
X62226280Y-53340000D02*
X39624000Y-53340000D01*
X20725000Y-50566000D02*
X28091000Y-50566000D01*
X35814000Y-49530000D02*
X29127000Y-49530000D01*
%TD*%
M02*
